^C:\USERS\ZOGEN\DESKTOP\MINIGAME\COCOS2D\COCOS\EDITOR-SUPPORT\SPINE\ANIMATION.C
/c /IC:\USERS\ZOGEN\DESKTOP\MINIGAME\COCOS2D\COCOS\2D\..\..\ /I"C:\USERS\ZOGEN\DESKTOP\MINIGAME\COCOS2D\COCOS\2D\..\..\COCOS\EDITOR-SUPPORT" /IC:\USERS\ZOGEN\DESKTOP\MINIGAME\COCOS2D\COCOS\2D\..\..\EXTENSIONS /IC:\USERS\ZOGEN\DESKTOP\MINIGAME\COCOS2D\COCOS\2D\..\..\COCOS /I"C:\USERS\ZOGEN\DESKTOP\MINIGAME\COCOS2D\COCOS\2D\..\..\COCOS/EDITOR-SUPPORT" /IC:\USERS\ZOGEN\DESKTOP\MINIGAME\COCOS2D\COCOS\2D\..\..\EXTERNAL\GLFW3\INCLUDE\WIN32 /I"C:\USERS\ZOGEN\DESKTOP\MINIGAME\COCOS2D\COCOS\2D\..\..\EXTERNAL\WIN32-SPECIFIC\GLES\INCLUDE\OGLES" /IC:\USERS\ZOGEN\DESKTOP\MINIGAME\COCOS2D\COCOS\2D\..\..\EXTERNAL\FREETYPE2\INCLUDE\WIN32\FREETYPE2 /IC:\USERS\ZOGEN\DESKTOP\MINIGAME\COCOS2D\COCOS\2D\..\..\EXTERNAL\FREETYPE2\INCLUDE\WIN32\ /IC:\USERS\ZOGEN\DESKTOP\MINIGAME\COCOS2D\COCOS\2D\..\..\EXTERNAL /IC:\USERS\ZOGEN\DESKTOP\MINIGAME\COCOS2D\COCOS\2D\..\..\EXTERNAL\OPENSSL\INCLUDE\WIN32 /nologo /W3 /WX- /diagnostics:column /O1 /Oi /Oy- /D WIN32 /D _WINDOWS /D _LIB /D COCOS2DXWIN32_EXPORTS /D GL_GLEXT_PROTOTYPES /D _CRT_SECURE_NO_WARNINGS /D _SCL_SECURE_NO_WARNINGS /D _VARIADIC_MAX=10 /D _UNICODE /D UNICODE /Gm- /EHsc /MD /GS /Gy /fp:precise /Zc:wchar_t /Zc:forScope /Zc:inline /Fo"RELEASE.WIN32\\" /Fd"RELEASE.WIN32\LIBSPINE.PDB" /Gd /TC /analyze- /FC C:\USERS\ZOGEN\DESKTOP\MINIGAME\COCOS2D\COCOS\EDITOR-SUPPORT\SPINE\ANIMATION.C
^C:\USERS\ZOGEN\DESKTOP\MINIGAME\COCOS2D\COCOS\EDITOR-SUPPORT\SPINE\ANIMATIONSTATE.C
/c /IC:\USERS\ZOGEN\DESKTOP\MINIGAME\COCOS2D\COCOS\2D\..\..\ /I"C:\USERS\ZOGEN\DESKTOP\MINIGAME\COCOS2D\COCOS\2D\..\..\COCOS\EDITOR-SUPPORT" /IC:\USERS\ZOGEN\DESKTOP\MINIGAME\COCOS2D\COCOS\2D\..\..\EXTENSIONS /IC:\USERS\ZOGEN\DESKTOP\MINIGAME\COCOS2D\COCOS\2D\..\..\COCOS /I"C:\USERS\ZOGEN\DESKTOP\MINIGAME\COCOS2D\COCOS\2D\..\..\COCOS/EDITOR-SUPPORT" /IC:\USERS\ZOGEN\DESKTOP\MINIGAME\COCOS2D\COCOS\2D\..\..\EXTERNAL\GLFW3\INCLUDE\WIN32 /I"C:\USERS\ZOGEN\DESKTOP\MINIGAME\COCOS2D\COCOS\2D\..\..\EXTERNAL\WIN32-SPECIFIC\GLES\INCLUDE\OGLES" /IC:\USERS\ZOGEN\DESKTOP\MINIGAME\COCOS2D\COCOS\2D\..\..\EXTERNAL\FREETYPE2\INCLUDE\WIN32\FREETYPE2 /IC:\USERS\ZOGEN\DESKTOP\MINIGAME\COCOS2D\COCOS\2D\..\..\EXTERNAL\FREETYPE2\INCLUDE\WIN32\ /IC:\USERS\ZOGEN\DESKTOP\MINIGAME\COCOS2D\COCOS\2D\..\..\EXTERNAL /IC:\USERS\ZOGEN\DESKTOP\MINIGAME\COCOS2D\COCOS\2D\..\..\EXTERNAL\OPENSSL\INCLUDE\WIN32 /nologo /W3 /WX- /diagnostics:column /O1 /Oi /Oy- /D WIN32 /D _WINDOWS /D _LIB /D COCOS2DXWIN32_EXPORTS /D GL_GLEXT_PROTOTYPES /D _CRT_SECURE_NO_WARNINGS /D _SCL_SECURE_NO_WARNINGS /D _VARIADIC_MAX=10 /D _UNICODE /D UNICODE /Gm- /EHsc /MD /GS /Gy /fp:precise /Zc:wchar_t /Zc:forScope /Zc:inline /Fo"RELEASE.WIN32\\" /Fd"RELEASE.WIN32\LIBSPINE.PDB" /Gd /TC /analyze- /FC C:\USERS\ZOGEN\DESKTOP\MINIGAME\COCOS2D\COCOS\EDITOR-SUPPORT\SPINE\ANIMATIONSTATE.C
^C:\USERS\ZOGEN\DESKTOP\MINIGAME\COCOS2D\COCOS\EDITOR-SUPPORT\SPINE\ANIMATIONSTATEDATA.C
/c /IC:\USERS\ZOGEN\DESKTOP\MINIGAME\COCOS2D\COCOS\2D\..\..\ /I"C:\USERS\ZOGEN\DESKTOP\MINIGAME\COCOS2D\COCOS\2D\..\..\COCOS\EDITOR-SUPPORT" /IC:\USERS\ZOGEN\DESKTOP\MINIGAME\COCOS2D\COCOS\2D\..\..\EXTENSIONS /IC:\USERS\ZOGEN\DESKTOP\MINIGAME\COCOS2D\COCOS\2D\..\..\COCOS /I"C:\USERS\ZOGEN\DESKTOP\MINIGAME\COCOS2D\COCOS\2D\..\..\COCOS/EDITOR-SUPPORT" /IC:\USERS\ZOGEN\DESKTOP\MINIGAME\COCOS2D\COCOS\2D\..\..\EXTERNAL\GLFW3\INCLUDE\WIN32 /I"C:\USERS\ZOGEN\DESKTOP\MINIGAME\COCOS2D\COCOS\2D\..\..\EXTERNAL\WIN32-SPECIFIC\GLES\INCLUDE\OGLES" /IC:\USERS\ZOGEN\DESKTOP\MINIGAME\COCOS2D\COCOS\2D\..\..\EXTERNAL\FREETYPE2\INCLUDE\WIN32\FREETYPE2 /IC:\USERS\ZOGEN\DESKTOP\MINIGAME\COCOS2D\COCOS\2D\..\..\EXTERNAL\FREETYPE2\INCLUDE\WIN32\ /IC:\USERS\ZOGEN\DESKTOP\MINIGAME\COCOS2D\COCOS\2D\..\..\EXTERNAL /IC:\USERS\ZOGEN\DESKTOP\MINIGAME\COCOS2D\COCOS\2D\..\..\EXTERNAL\OPENSSL\INCLUDE\WIN32 /nologo /W3 /WX- /diagnostics:column /O1 /Oi /Oy- /D WIN32 /D _WINDOWS /D _LIB /D COCOS2DXWIN32_EXPORTS /D GL_GLEXT_PROTOTYPES /D _CRT_SECURE_NO_WARNINGS /D _SCL_SECURE_NO_WARNINGS /D _VARIADIC_MAX=10 /D _UNICODE /D UNICODE /Gm- /EHsc /MD /GS /Gy /fp:precise /Zc:wchar_t /Zc:forScope /Zc:inline /Fo"RELEASE.WIN32\\" /Fd"RELEASE.WIN32\LIBSPINE.PDB" /Gd /TC /analyze- /FC C:\USERS\ZOGEN\DESKTOP\MINIGAME\COCOS2D\COCOS\EDITOR-SUPPORT\SPINE\ANIMATIONSTATEDATA.C
^C:\USERS\ZOGEN\DESKTOP\MINIGAME\COCOS2D\COCOS\EDITOR-SUPPORT\SPINE\ARRAY.C
/c /IC:\USERS\ZOGEN\DESKTOP\MINIGAME\COCOS2D\COCOS\2D\..\..\ /I"C:\USERS\ZOGEN\DESKTOP\MINIGAME\COCOS2D\COCOS\2D\..\..\COCOS\EDITOR-SUPPORT" /IC:\USERS\ZOGEN\DESKTOP\MINIGAME\COCOS2D\COCOS\2D\..\..\EXTENSIONS /IC:\USERS\ZOGEN\DESKTOP\MINIGAME\COCOS2D\COCOS\2D\..\..\COCOS /I"C:\USERS\ZOGEN\DESKTOP\MINIGAME\COCOS2D\COCOS\2D\..\..\COCOS/EDITOR-SUPPORT" /IC:\USERS\ZOGEN\DESKTOP\MINIGAME\COCOS2D\COCOS\2D\..\..\EXTERNAL\GLFW3\INCLUDE\WIN32 /I"C:\USERS\ZOGEN\DESKTOP\MINIGAME\COCOS2D\COCOS\2D\..\..\EXTERNAL\WIN32-SPECIFIC\GLES\INCLUDE\OGLES" /IC:\USERS\ZOGEN\DESKTOP\MINIGAME\COCOS2D\COCOS\2D\..\..\EXTERNAL\FREETYPE2\INCLUDE\WIN32\FREETYPE2 /IC:\USERS\ZOGEN\DESKTOP\MINIGAME\COCOS2D\COCOS\2D\..\..\EXTERNAL\FREETYPE2\INCLUDE\WIN32\ /IC:\USERS\ZOGEN\DESKTOP\MINIGAME\COCOS2D\COCOS\2D\..\..\EXTERNAL /IC:\USERS\ZOGEN\DESKTOP\MINIGAME\COCOS2D\COCOS\2D\..\..\EXTERNAL\OPENSSL\INCLUDE\WIN32 /nologo /W3 /WX- /diagnostics:column /O1 /Oi /Oy- /D WIN32 /D _WINDOWS /D _LIB /D COCOS2DXWIN32_EXPORTS /D GL_GLEXT_PROTOTYPES /D _CRT_SECURE_NO_WARNINGS /D _SCL_SECURE_NO_WARNINGS /D _VARIADIC_MAX=10 /D _UNICODE /D UNICODE /Gm- /EHsc /MD /GS /Gy /fp:precise /Zc:wchar_t /Zc:forScope /Zc:inline /Fo"RELEASE.WIN32\\" /Fd"RELEASE.WIN32\LIBSPINE.PDB" /Gd /TC /analyze- /FC C:\USERS\ZOGEN\DESKTOP\MINIGAME\COCOS2D\COCOS\EDITOR-SUPPORT\SPINE\ARRAY.C
^C:\USERS\ZOGEN\DESKTOP\MINIGAME\COCOS2D\COCOS\EDITOR-SUPPORT\SPINE\ATLAS.C
/c /IC:\USERS\ZOGEN\DESKTOP\MINIGAME\COCOS2D\COCOS\2D\..\..\ /I"C:\USERS\ZOGEN\DESKTOP\MINIGAME\COCOS2D\COCOS\2D\..\..\COCOS\EDITOR-SUPPORT" /IC:\USERS\ZOGEN\DESKTOP\MINIGAME\COCOS2D\COCOS\2D\..\..\EXTENSIONS /IC:\USERS\ZOGEN\DESKTOP\MINIGAME\COCOS2D\COCOS\2D\..\..\COCOS /I"C:\USERS\ZOGEN\DESKTOP\MINIGAME\COCOS2D\COCOS\2D\..\..\COCOS/EDITOR-SUPPORT" /IC:\USERS\ZOGEN\DESKTOP\MINIGAME\COCOS2D\COCOS\2D\..\..\EXTERNAL\GLFW3\INCLUDE\WIN32 /I"C:\USERS\ZOGEN\DESKTOP\MINIGAME\COCOS2D\COCOS\2D\..\..\EXTERNAL\WIN32-SPECIFIC\GLES\INCLUDE\OGLES" /IC:\USERS\ZOGEN\DESKTOP\MINIGAME\COCOS2D\COCOS\2D\..\..\EXTERNAL\FREETYPE2\INCLUDE\WIN32\FREETYPE2 /IC:\USERS\ZOGEN\DESKTOP\MINIGAME\COCOS2D\COCOS\2D\..\..\EXTERNAL\FREETYPE2\INCLUDE\WIN32\ /IC:\USERS\ZOGEN\DESKTOP\MINIGAME\COCOS2D\COCOS\2D\..\..\EXTERNAL /IC:\USERS\ZOGEN\DESKTOP\MINIGAME\COCOS2D\COCOS\2D\..\..\EXTERNAL\OPENSSL\INCLUDE\WIN32 /nologo /W3 /WX- /diagnostics:column /O1 /Oi /Oy- /D WIN32 /D _WINDOWS /D _LIB /D COCOS2DXWIN32_EXPORTS /D GL_GLEXT_PROTOTYPES /D _CRT_SECURE_NO_WARNINGS /D _SCL_SECURE_NO_WARNINGS /D _VARIADIC_MAX=10 /D _UNICODE /D UNICODE /Gm- /EHsc /MD /GS /Gy /fp:precise /Zc:wchar_t /Zc:forScope /Zc:inline /Fo"RELEASE.WIN32\\" /Fd"RELEASE.WIN32\LIBSPINE.PDB" /Gd /TC /analyze- /FC C:\USERS\ZOGEN\DESKTOP\MINIGAME\COCOS2D\COCOS\EDITOR-SUPPORT\SPINE\ATLAS.C
^C:\USERS\ZOGEN\DESKTOP\MINIGAME\COCOS2D\COCOS\EDITOR-SUPPORT\SPINE\ATLASATTACHMENTLOADER.C
/c /IC:\USERS\ZOGEN\DESKTOP\MINIGAME\COCOS2D\COCOS\2D\..\..\ /I"C:\USERS\ZOGEN\DESKTOP\MINIGAME\COCOS2D\COCOS\2D\..\..\COCOS\EDITOR-SUPPORT" /IC:\USERS\ZOGEN\DESKTOP\MINIGAME\COCOS2D\COCOS\2D\..\..\EXTENSIONS /IC:\USERS\ZOGEN\DESKTOP\MINIGAME\COCOS2D\COCOS\2D\..\..\COCOS /I"C:\USERS\ZOGEN\DESKTOP\MINIGAME\COCOS2D\COCOS\2D\..\..\COCOS/EDITOR-SUPPORT" /IC:\USERS\ZOGEN\DESKTOP\MINIGAME\COCOS2D\COCOS\2D\..\..\EXTERNAL\GLFW3\INCLUDE\WIN32 /I"C:\USERS\ZOGEN\DESKTOP\MINIGAME\COCOS2D\COCOS\2D\..\..\EXTERNAL\WIN32-SPECIFIC\GLES\INCLUDE\OGLES" /IC:\USERS\ZOGEN\DESKTOP\MINIGAME\COCOS2D\COCOS\2D\..\..\EXTERNAL\FREETYPE2\INCLUDE\WIN32\FREETYPE2 /IC:\USERS\ZOGEN\DESKTOP\MINIGAME\COCOS2D\COCOS\2D\..\..\EXTERNAL\FREETYPE2\INCLUDE\WIN32\ /IC:\USERS\ZOGEN\DESKTOP\MINIGAME\COCOS2D\COCOS\2D\..\..\EXTERNAL /IC:\USERS\ZOGEN\DESKTOP\MINIGAME\COCOS2D\COCOS\2D\..\..\EXTERNAL\OPENSSL\INCLUDE\WIN32 /nologo /W3 /WX- /diagnostics:column /O1 /Oi /Oy- /D WIN32 /D _WINDOWS /D _LIB /D COCOS2DXWIN32_EXPORTS /D GL_GLEXT_PROTOTYPES /D _CRT_SECURE_NO_WARNINGS /D _SCL_SECURE_NO_WARNINGS /D _VARIADIC_MAX=10 /D _UNICODE /D UNICODE /Gm- /EHsc /MD /GS /Gy /fp:precise /Zc:wchar_t /Zc:forScope /Zc:inline /Fo"RELEASE.WIN32\\" /Fd"RELEASE.WIN32\LIBSPINE.PDB" /Gd /TC /analyze- /FC C:\USERS\ZOGEN\DESKTOP\MINIGAME\COCOS2D\COCOS\EDITOR-SUPPORT\SPINE\ATLASATTACHMENTLOADER.C
^C:\USERS\ZOGEN\DESKTOP\MINIGAME\COCOS2D\COCOS\EDITOR-SUPPORT\SPINE\ATTACHMENT.C
/c /IC:\USERS\ZOGEN\DESKTOP\MINIGAME\COCOS2D\COCOS\2D\..\..\ /I"C:\USERS\ZOGEN\DESKTOP\MINIGAME\COCOS2D\COCOS\2D\..\..\COCOS\EDITOR-SUPPORT" /IC:\USERS\ZOGEN\DESKTOP\MINIGAME\COCOS2D\COCOS\2D\..\..\EXTENSIONS /IC:\USERS\ZOGEN\DESKTOP\MINIGAME\COCOS2D\COCOS\2D\..\..\COCOS /I"C:\USERS\ZOGEN\DESKTOP\MINIGAME\COCOS2D\COCOS\2D\..\..\COCOS/EDITOR-SUPPORT" /IC:\USERS\ZOGEN\DESKTOP\MINIGAME\COCOS2D\COCOS\2D\..\..\EXTERNAL\GLFW3\INCLUDE\WIN32 /I"C:\USERS\ZOGEN\DESKTOP\MINIGAME\COCOS2D\COCOS\2D\..\..\EXTERNAL\WIN32-SPECIFIC\GLES\INCLUDE\OGLES" /IC:\USERS\ZOGEN\DESKTOP\MINIGAME\COCOS2D\COCOS\2D\..\..\EXTERNAL\FREETYPE2\INCLUDE\WIN32\FREETYPE2 /IC:\USERS\ZOGEN\DESKTOP\MINIGAME\COCOS2D\COCOS\2D\..\..\EXTERNAL\FREETYPE2\INCLUDE\WIN32\ /IC:\USERS\ZOGEN\DESKTOP\MINIGAME\COCOS2D\COCOS\2D\..\..\EXTERNAL /IC:\USERS\ZOGEN\DESKTOP\MINIGAME\COCOS2D\COCOS\2D\..\..\EXTERNAL\OPENSSL\INCLUDE\WIN32 /nologo /W3 /WX- /diagnostics:column /O1 /Oi /Oy- /D WIN32 /D _WINDOWS /D _LIB /D COCOS2DXWIN32_EXPORTS /D GL_GLEXT_PROTOTYPES /D _CRT_SECURE_NO_WARNINGS /D _SCL_SECURE_NO_WARNINGS /D _VARIADIC_MAX=10 /D _UNICODE /D UNICODE /Gm- /EHsc /MD /GS /Gy /fp:precise /Zc:wchar_t /Zc:forScope /Zc:inline /Fo"RELEASE.WIN32\\" /Fd"RELEASE.WIN32\LIBSPINE.PDB" /Gd /TC /analyze- /FC C:\USERS\ZOGEN\DESKTOP\MINIGAME\COCOS2D\COCOS\EDITOR-SUPPORT\SPINE\ATTACHMENT.C
^C:\USERS\ZOGEN\DESKTOP\MINIGAME\COCOS2D\COCOS\EDITOR-SUPPORT\SPINE\ATTACHMENTLOADER.C
/c /IC:\USERS\ZOGEN\DESKTOP\MINIGAME\COCOS2D\COCOS\2D\..\..\ /I"C:\USERS\ZOGEN\DESKTOP\MINIGAME\COCOS2D\COCOS\2D\..\..\COCOS\EDITOR-SUPPORT" /IC:\USERS\ZOGEN\DESKTOP\MINIGAME\COCOS2D\COCOS\2D\..\..\EXTENSIONS /IC:\USERS\ZOGEN\DESKTOP\MINIGAME\COCOS2D\COCOS\2D\..\..\COCOS /I"C:\USERS\ZOGEN\DESKTOP\MINIGAME\COCOS2D\COCOS\2D\..\..\COCOS/EDITOR-SUPPORT" /IC:\USERS\ZOGEN\DESKTOP\MINIGAME\COCOS2D\COCOS\2D\..\..\EXTERNAL\GLFW3\INCLUDE\WIN32 /I"C:\USERS\ZOGEN\DESKTOP\MINIGAME\COCOS2D\COCOS\2D\..\..\EXTERNAL\WIN32-SPECIFIC\GLES\INCLUDE\OGLES" /IC:\USERS\ZOGEN\DESKTOP\MINIGAME\COCOS2D\COCOS\2D\..\..\EXTERNAL\FREETYPE2\INCLUDE\WIN32\FREETYPE2 /IC:\USERS\ZOGEN\DESKTOP\MINIGAME\COCOS2D\COCOS\2D\..\..\EXTERNAL\FREETYPE2\INCLUDE\WIN32\ /IC:\USERS\ZOGEN\DESKTOP\MINIGAME\COCOS2D\COCOS\2D\..\..\EXTERNAL /IC:\USERS\ZOGEN\DESKTOP\MINIGAME\COCOS2D\COCOS\2D\..\..\EXTERNAL\OPENSSL\INCLUDE\WIN32 /nologo /W3 /WX- /diagnostics:column /O1 /Oi /Oy- /D WIN32 /D _WINDOWS /D _LIB /D COCOS2DXWIN32_EXPORTS /D GL_GLEXT_PROTOTYPES /D _CRT_SECURE_NO_WARNINGS /D _SCL_SECURE_NO_WARNINGS /D _VARIADIC_MAX=10 /D _UNICODE /D UNICODE /Gm- /EHsc /MD /GS /Gy /fp:precise /Zc:wchar_t /Zc:forScope /Zc:inline /Fo"RELEASE.WIN32\\" /Fd"RELEASE.WIN32\LIBSPINE.PDB" /Gd /TC /analyze- /FC C:\USERS\ZOGEN\DESKTOP\MINIGAME\COCOS2D\COCOS\EDITOR-SUPPORT\SPINE\ATTACHMENTLOADER.C
^C:\USERS\ZOGEN\DESKTOP\MINIGAME\COCOS2D\COCOS\EDITOR-SUPPORT\SPINE\BONE.C
/c /IC:\USERS\ZOGEN\DESKTOP\MINIGAME\COCOS2D\COCOS\2D\..\..\ /I"C:\USERS\ZOGEN\DESKTOP\MINIGAME\COCOS2D\COCOS\2D\..\..\COCOS\EDITOR-SUPPORT" /IC:\USERS\ZOGEN\DESKTOP\MINIGAME\COCOS2D\COCOS\2D\..\..\EXTENSIONS /IC:\USERS\ZOGEN\DESKTOP\MINIGAME\COCOS2D\COCOS\2D\..\..\COCOS /I"C:\USERS\ZOGEN\DESKTOP\MINIGAME\COCOS2D\COCOS\2D\..\..\COCOS/EDITOR-SUPPORT" /IC:\USERS\ZOGEN\DESKTOP\MINIGAME\COCOS2D\COCOS\2D\..\..\EXTERNAL\GLFW3\INCLUDE\WIN32 /I"C:\USERS\ZOGEN\DESKTOP\MINIGAME\COCOS2D\COCOS\2D\..\..\EXTERNAL\WIN32-SPECIFIC\GLES\INCLUDE\OGLES" /IC:\USERS\ZOGEN\DESKTOP\MINIGAME\COCOS2D\COCOS\2D\..\..\EXTERNAL\FREETYPE2\INCLUDE\WIN32\FREETYPE2 /IC:\USERS\ZOGEN\DESKTOP\MINIGAME\COCOS2D\COCOS\2D\..\..\EXTERNAL\FREETYPE2\INCLUDE\WIN32\ /IC:\USERS\ZOGEN\DESKTOP\MINIGAME\COCOS2D\COCOS\2D\..\..\EXTERNAL /IC:\USERS\ZOGEN\DESKTOP\MINIGAME\COCOS2D\COCOS\2D\..\..\EXTERNAL\OPENSSL\INCLUDE\WIN32 /nologo /W3 /WX- /diagnostics:column /O1 /Oi /Oy- /D WIN32 /D _WINDOWS /D _LIB /D COCOS2DXWIN32_EXPORTS /D GL_GLEXT_PROTOTYPES /D _CRT_SECURE_NO_WARNINGS /D _SCL_SECURE_NO_WARNINGS /D _VARIADIC_MAX=10 /D _UNICODE /D UNICODE /Gm- /EHsc /MD /GS /Gy /fp:precise /Zc:wchar_t /Zc:forScope /Zc:inline /Fo"RELEASE.WIN32\\" /Fd"RELEASE.WIN32\LIBSPINE.PDB" /Gd /TC /analyze- /FC C:\USERS\ZOGEN\DESKTOP\MINIGAME\COCOS2D\COCOS\EDITOR-SUPPORT\SPINE\BONE.C
^C:\USERS\ZOGEN\DESKTOP\MINIGAME\COCOS2D\COCOS\EDITOR-SUPPORT\SPINE\BONEDATA.C
/c /IC:\USERS\ZOGEN\DESKTOP\MINIGAME\COCOS2D\COCOS\2D\..\..\ /I"C:\USERS\ZOGEN\DESKTOP\MINIGAME\COCOS2D\COCOS\2D\..\..\COCOS\EDITOR-SUPPORT" /IC:\USERS\ZOGEN\DESKTOP\MINIGAME\COCOS2D\COCOS\2D\..\..\EXTENSIONS /IC:\USERS\ZOGEN\DESKTOP\MINIGAME\COCOS2D\COCOS\2D\..\..\COCOS /I"C:\USERS\ZOGEN\DESKTOP\MINIGAME\COCOS2D\COCOS\2D\..\..\COCOS/EDITOR-SUPPORT" /IC:\USERS\ZOGEN\DESKTOP\MINIGAME\COCOS2D\COCOS\2D\..\..\EXTERNAL\GLFW3\INCLUDE\WIN32 /I"C:\USERS\ZOGEN\DESKTOP\MINIGAME\COCOS2D\COCOS\2D\..\..\EXTERNAL\WIN32-SPECIFIC\GLES\INCLUDE\OGLES" /IC:\USERS\ZOGEN\DESKTOP\MINIGAME\COCOS2D\COCOS\2D\..\..\EXTERNAL\FREETYPE2\INCLUDE\WIN32\FREETYPE2 /IC:\USERS\ZOGEN\DESKTOP\MINIGAME\COCOS2D\COCOS\2D\..\..\EXTERNAL\FREETYPE2\INCLUDE\WIN32\ /IC:\USERS\ZOGEN\DESKTOP\MINIGAME\COCOS2D\COCOS\2D\..\..\EXTERNAL /IC:\USERS\ZOGEN\DESKTOP\MINIGAME\COCOS2D\COCOS\2D\..\..\EXTERNAL\OPENSSL\INCLUDE\WIN32 /nologo /W3 /WX- /diagnostics:column /O1 /Oi /Oy- /D WIN32 /D _WINDOWS /D _LIB /D COCOS2DXWIN32_EXPORTS /D GL_GLEXT_PROTOTYPES /D _CRT_SECURE_NO_WARNINGS /D _SCL_SECURE_NO_WARNINGS /D _VARIADIC_MAX=10 /D _UNICODE /D UNICODE /Gm- /EHsc /MD /GS /Gy /fp:precise /Zc:wchar_t /Zc:forScope /Zc:inline /Fo"RELEASE.WIN32\\" /Fd"RELEASE.WIN32\LIBSPINE.PDB" /Gd /TC /analyze- /FC C:\USERS\ZOGEN\DESKTOP\MINIGAME\COCOS2D\COCOS\EDITOR-SUPPORT\SPINE\BONEDATA.C
^C:\USERS\ZOGEN\DESKTOP\MINIGAME\COCOS2D\COCOS\EDITOR-SUPPORT\SPINE\BOUNDINGBOXATTACHMENT.C
/c /IC:\USERS\ZOGEN\DESKTOP\MINIGAME\COCOS2D\COCOS\2D\..\..\ /I"C:\USERS\ZOGEN\DESKTOP\MINIGAME\COCOS2D\COCOS\2D\..\..\COCOS\EDITOR-SUPPORT" /IC:\USERS\ZOGEN\DESKTOP\MINIGAME\COCOS2D\COCOS\2D\..\..\EXTENSIONS /IC:\USERS\ZOGEN\DESKTOP\MINIGAME\COCOS2D\COCOS\2D\..\..\COCOS /I"C:\USERS\ZOGEN\DESKTOP\MINIGAME\COCOS2D\COCOS\2D\..\..\COCOS/EDITOR-SUPPORT" /IC:\USERS\ZOGEN\DESKTOP\MINIGAME\COCOS2D\COCOS\2D\..\..\EXTERNAL\GLFW3\INCLUDE\WIN32 /I"C:\USERS\ZOGEN\DESKTOP\MINIGAME\COCOS2D\COCOS\2D\..\..\EXTERNAL\WIN32-SPECIFIC\GLES\INCLUDE\OGLES" /IC:\USERS\ZOGEN\DESKTOP\MINIGAME\COCOS2D\COCOS\2D\..\..\EXTERNAL\FREETYPE2\INCLUDE\WIN32\FREETYPE2 /IC:\USERS\ZOGEN\DESKTOP\MINIGAME\COCOS2D\COCOS\2D\..\..\EXTERNAL\FREETYPE2\INCLUDE\WIN32\ /IC:\USERS\ZOGEN\DESKTOP\MINIGAME\COCOS2D\COCOS\2D\..\..\EXTERNAL /IC:\USERS\ZOGEN\DESKTOP\MINIGAME\COCOS2D\COCOS\2D\..\..\EXTERNAL\OPENSSL\INCLUDE\WIN32 /nologo /W3 /WX- /diagnostics:column /O1 /Oi /Oy- /D WIN32 /D _WINDOWS /D _LIB /D COCOS2DXWIN32_EXPORTS /D GL_GLEXT_PROTOTYPES /D _CRT_SECURE_NO_WARNINGS /D _SCL_SECURE_NO_WARNINGS /D _VARIADIC_MAX=10 /D _UNICODE /D UNICODE /Gm- /EHsc /MD /GS /Gy /fp:precise /Zc:wchar_t /Zc:forScope /Zc:inline /Fo"RELEASE.WIN32\\" /Fd"RELEASE.WIN32\LIBSPINE.PDB" /Gd /TC /analyze- /FC C:\USERS\ZOGEN\DESKTOP\MINIGAME\COCOS2D\COCOS\EDITOR-SUPPORT\SPINE\BOUNDINGBOXATTACHMENT.C
^C:\USERS\ZOGEN\DESKTOP\MINIGAME\COCOS2D\COCOS\EDITOR-SUPPORT\SPINE\CLIPPINGATTACHMENT.C
/c /IC:\USERS\ZOGEN\DESKTOP\MINIGAME\COCOS2D\COCOS\2D\..\..\ /I"C:\USERS\ZOGEN\DESKTOP\MINIGAME\COCOS2D\COCOS\2D\..\..\COCOS\EDITOR-SUPPORT" /IC:\USERS\ZOGEN\DESKTOP\MINIGAME\COCOS2D\COCOS\2D\..\..\EXTENSIONS /IC:\USERS\ZOGEN\DESKTOP\MINIGAME\COCOS2D\COCOS\2D\..\..\COCOS /I"C:\USERS\ZOGEN\DESKTOP\MINIGAME\COCOS2D\COCOS\2D\..\..\COCOS/EDITOR-SUPPORT" /IC:\USERS\ZOGEN\DESKTOP\MINIGAME\COCOS2D\COCOS\2D\..\..\EXTERNAL\GLFW3\INCLUDE\WIN32 /I"C:\USERS\ZOGEN\DESKTOP\MINIGAME\COCOS2D\COCOS\2D\..\..\EXTERNAL\WIN32-SPECIFIC\GLES\INCLUDE\OGLES" /IC:\USERS\ZOGEN\DESKTOP\MINIGAME\COCOS2D\COCOS\2D\..\..\EXTERNAL\FREETYPE2\INCLUDE\WIN32\FREETYPE2 /IC:\USERS\ZOGEN\DESKTOP\MINIGAME\COCOS2D\COCOS\2D\..\..\EXTERNAL\FREETYPE2\INCLUDE\WIN32\ /IC:\USERS\ZOGEN\DESKTOP\MINIGAME\COCOS2D\COCOS\2D\..\..\EXTERNAL /IC:\USERS\ZOGEN\DESKTOP\MINIGAME\COCOS2D\COCOS\2D\..\..\EXTERNAL\OPENSSL\INCLUDE\WIN32 /nologo /W3 /WX- /diagnostics:column /O1 /Oi /Oy- /D WIN32 /D _WINDOWS /D _LIB /D COCOS2DXWIN32_EXPORTS /D GL_GLEXT_PROTOTYPES /D _CRT_SECURE_NO_WARNINGS /D _SCL_SECURE_NO_WARNINGS /D _VARIADIC_MAX=10 /D _UNICODE /D UNICODE /Gm- /EHsc /MD /GS /Gy /fp:precise /Zc:wchar_t /Zc:forScope /Zc:inline /Fo"RELEASE.WIN32\\" /Fd"RELEASE.WIN32\LIBSPINE.PDB" /Gd /TC /analyze- /FC C:\USERS\ZOGEN\DESKTOP\MINIGAME\COCOS2D\COCOS\EDITOR-SUPPORT\SPINE\CLIPPINGATTACHMENT.C
^C:\USERS\ZOGEN\DESKTOP\MINIGAME\COCOS2D\COCOS\EDITOR-SUPPORT\SPINE\COLOR.C
/c /IC:\USERS\ZOGEN\DESKTOP\MINIGAME\COCOS2D\COCOS\2D\..\..\ /I"C:\USERS\ZOGEN\DESKTOP\MINIGAME\COCOS2D\COCOS\2D\..\..\COCOS\EDITOR-SUPPORT" /IC:\USERS\ZOGEN\DESKTOP\MINIGAME\COCOS2D\COCOS\2D\..\..\EXTENSIONS /IC:\USERS\ZOGEN\DESKTOP\MINIGAME\COCOS2D\COCOS\2D\..\..\COCOS /I"C:\USERS\ZOGEN\DESKTOP\MINIGAME\COCOS2D\COCOS\2D\..\..\COCOS/EDITOR-SUPPORT" /IC:\USERS\ZOGEN\DESKTOP\MINIGAME\COCOS2D\COCOS\2D\..\..\EXTERNAL\GLFW3\INCLUDE\WIN32 /I"C:\USERS\ZOGEN\DESKTOP\MINIGAME\COCOS2D\COCOS\2D\..\..\EXTERNAL\WIN32-SPECIFIC\GLES\INCLUDE\OGLES" /IC:\USERS\ZOGEN\DESKTOP\MINIGAME\COCOS2D\COCOS\2D\..\..\EXTERNAL\FREETYPE2\INCLUDE\WIN32\FREETYPE2 /IC:\USERS\ZOGEN\DESKTOP\MINIGAME\COCOS2D\COCOS\2D\..\..\EXTERNAL\FREETYPE2\INCLUDE\WIN32\ /IC:\USERS\ZOGEN\DESKTOP\MINIGAME\COCOS2D\COCOS\2D\..\..\EXTERNAL /IC:\USERS\ZOGEN\DESKTOP\MINIGAME\COCOS2D\COCOS\2D\..\..\EXTERNAL\OPENSSL\INCLUDE\WIN32 /nologo /W3 /WX- /diagnostics:column /O1 /Oi /Oy- /D WIN32 /D _WINDOWS /D _LIB /D COCOS2DXWIN32_EXPORTS /D GL_GLEXT_PROTOTYPES /D _CRT_SECURE_NO_WARNINGS /D _SCL_SECURE_NO_WARNINGS /D _VARIADIC_MAX=10 /D _UNICODE /D UNICODE /Gm- /EHsc /MD /GS /Gy /fp:precise /Zc:wchar_t /Zc:forScope /Zc:inline /Fo"RELEASE.WIN32\\" /Fd"RELEASE.WIN32\LIBSPINE.PDB" /Gd /TC /analyze- /FC C:\USERS\ZOGEN\DESKTOP\MINIGAME\COCOS2D\COCOS\EDITOR-SUPPORT\SPINE\COLOR.C
^C:\USERS\ZOGEN\DESKTOP\MINIGAME\COCOS2D\COCOS\EDITOR-SUPPORT\SPINE\EVENT.C
/c /IC:\USERS\ZOGEN\DESKTOP\MINIGAME\COCOS2D\COCOS\2D\..\..\ /I"C:\USERS\ZOGEN\DESKTOP\MINIGAME\COCOS2D\COCOS\2D\..\..\COCOS\EDITOR-SUPPORT" /IC:\USERS\ZOGEN\DESKTOP\MINIGAME\COCOS2D\COCOS\2D\..\..\EXTENSIONS /IC:\USERS\ZOGEN\DESKTOP\MINIGAME\COCOS2D\COCOS\2D\..\..\COCOS /I"C:\USERS\ZOGEN\DESKTOP\MINIGAME\COCOS2D\COCOS\2D\..\..\COCOS/EDITOR-SUPPORT" /IC:\USERS\ZOGEN\DESKTOP\MINIGAME\COCOS2D\COCOS\2D\..\..\EXTERNAL\GLFW3\INCLUDE\WIN32 /I"C:\USERS\ZOGEN\DESKTOP\MINIGAME\COCOS2D\COCOS\2D\..\..\EXTERNAL\WIN32-SPECIFIC\GLES\INCLUDE\OGLES" /IC:\USERS\ZOGEN\DESKTOP\MINIGAME\COCOS2D\COCOS\2D\..\..\EXTERNAL\FREETYPE2\INCLUDE\WIN32\FREETYPE2 /IC:\USERS\ZOGEN\DESKTOP\MINIGAME\COCOS2D\COCOS\2D\..\..\EXTERNAL\FREETYPE2\INCLUDE\WIN32\ /IC:\USERS\ZOGEN\DESKTOP\MINIGAME\COCOS2D\COCOS\2D\..\..\EXTERNAL /IC:\USERS\ZOGEN\DESKTOP\MINIGAME\COCOS2D\COCOS\2D\..\..\EXTERNAL\OPENSSL\INCLUDE\WIN32 /nologo /W3 /WX- /diagnostics:column /O1 /Oi /Oy- /D WIN32 /D _WINDOWS /D _LIB /D COCOS2DXWIN32_EXPORTS /D GL_GLEXT_PROTOTYPES /D _CRT_SECURE_NO_WARNINGS /D _SCL_SECURE_NO_WARNINGS /D _VARIADIC_MAX=10 /D _UNICODE /D UNICODE /Gm- /EHsc /MD /GS /Gy /fp:precise /Zc:wchar_t /Zc:forScope /Zc:inline /Fo"RELEASE.WIN32\\" /Fd"RELEASE.WIN32\LIBSPINE.PDB" /Gd /TC /analyze- /FC C:\USERS\ZOGEN\DESKTOP\MINIGAME\COCOS2D\COCOS\EDITOR-SUPPORT\SPINE\EVENT.C
^C:\USERS\ZOGEN\DESKTOP\MINIGAME\COCOS2D\COCOS\EDITOR-SUPPORT\SPINE\EVENTDATA.C
/c /IC:\USERS\ZOGEN\DESKTOP\MINIGAME\COCOS2D\COCOS\2D\..\..\ /I"C:\USERS\ZOGEN\DESKTOP\MINIGAME\COCOS2D\COCOS\2D\..\..\COCOS\EDITOR-SUPPORT" /IC:\USERS\ZOGEN\DESKTOP\MINIGAME\COCOS2D\COCOS\2D\..\..\EXTENSIONS /IC:\USERS\ZOGEN\DESKTOP\MINIGAME\COCOS2D\COCOS\2D\..\..\COCOS /I"C:\USERS\ZOGEN\DESKTOP\MINIGAME\COCOS2D\COCOS\2D\..\..\COCOS/EDITOR-SUPPORT" /IC:\USERS\ZOGEN\DESKTOP\MINIGAME\COCOS2D\COCOS\2D\..\..\EXTERNAL\GLFW3\INCLUDE\WIN32 /I"C:\USERS\ZOGEN\DESKTOP\MINIGAME\COCOS2D\COCOS\2D\..\..\EXTERNAL\WIN32-SPECIFIC\GLES\INCLUDE\OGLES" /IC:\USERS\ZOGEN\DESKTOP\MINIGAME\COCOS2D\COCOS\2D\..\..\EXTERNAL\FREETYPE2\INCLUDE\WIN32\FREETYPE2 /IC:\USERS\ZOGEN\DESKTOP\MINIGAME\COCOS2D\COCOS\2D\..\..\EXTERNAL\FREETYPE2\INCLUDE\WIN32\ /IC:\USERS\ZOGEN\DESKTOP\MINIGAME\COCOS2D\COCOS\2D\..\..\EXTERNAL /IC:\USERS\ZOGEN\DESKTOP\MINIGAME\COCOS2D\COCOS\2D\..\..\EXTERNAL\OPENSSL\INCLUDE\WIN32 /nologo /W3 /WX- /diagnostics:column /O1 /Oi /Oy- /D WIN32 /D _WINDOWS /D _LIB /D COCOS2DXWIN32_EXPORTS /D GL_GLEXT_PROTOTYPES /D _CRT_SECURE_NO_WARNINGS /D _SCL_SECURE_NO_WARNINGS /D _VARIADIC_MAX=10 /D _UNICODE /D UNICODE /Gm- /EHsc /MD /GS /Gy /fp:precise /Zc:wchar_t /Zc:forScope /Zc:inline /Fo"RELEASE.WIN32\\" /Fd"RELEASE.WIN32\LIBSPINE.PDB" /Gd /TC /analyze- /FC C:\USERS\ZOGEN\DESKTOP\MINIGAME\COCOS2D\COCOS\EDITOR-SUPPORT\SPINE\EVENTDATA.C
^C:\USERS\ZOGEN\DESKTOP\MINIGAME\COCOS2D\COCOS\EDITOR-SUPPORT\SPINE\EXTENSION.C
/c /IC:\USERS\ZOGEN\DESKTOP\MINIGAME\COCOS2D\COCOS\2D\..\..\ /I"C:\USERS\ZOGEN\DESKTOP\MINIGAME\COCOS2D\COCOS\2D\..\..\COCOS\EDITOR-SUPPORT" /IC:\USERS\ZOGEN\DESKTOP\MINIGAME\COCOS2D\COCOS\2D\..\..\EXTENSIONS /IC:\USERS\ZOGEN\DESKTOP\MINIGAME\COCOS2D\COCOS\2D\..\..\COCOS /I"C:\USERS\ZOGEN\DESKTOP\MINIGAME\COCOS2D\COCOS\2D\..\..\COCOS/EDITOR-SUPPORT" /IC:\USERS\ZOGEN\DESKTOP\MINIGAME\COCOS2D\COCOS\2D\..\..\EXTERNAL\GLFW3\INCLUDE\WIN32 /I"C:\USERS\ZOGEN\DESKTOP\MINIGAME\COCOS2D\COCOS\2D\..\..\EXTERNAL\WIN32-SPECIFIC\GLES\INCLUDE\OGLES" /IC:\USERS\ZOGEN\DESKTOP\MINIGAME\COCOS2D\COCOS\2D\..\..\EXTERNAL\FREETYPE2\INCLUDE\WIN32\FREETYPE2 /IC:\USERS\ZOGEN\DESKTOP\MINIGAME\COCOS2D\COCOS\2D\..\..\EXTERNAL\FREETYPE2\INCLUDE\WIN32\ /IC:\USERS\ZOGEN\DESKTOP\MINIGAME\COCOS2D\COCOS\2D\..\..\EXTERNAL /IC:\USERS\ZOGEN\DESKTOP\MINIGAME\COCOS2D\COCOS\2D\..\..\EXTERNAL\OPENSSL\INCLUDE\WIN32 /nologo /W3 /WX- /diagnostics:column /O1 /Oi /Oy- /D WIN32 /D _WINDOWS /D _LIB /D COCOS2DXWIN32_EXPORTS /D GL_GLEXT_PROTOTYPES /D _CRT_SECURE_NO_WARNINGS /D _SCL_SECURE_NO_WARNINGS /D _VARIADIC_MAX=10 /D _UNICODE /D UNICODE /Gm- /EHsc /MD /GS /Gy /fp:precise /Zc:wchar_t /Zc:forScope /Zc:inline /Fo"RELEASE.WIN32\\" /Fd"RELEASE.WIN32\LIBSPINE.PDB" /Gd /TC /analyze- /FC C:\USERS\ZOGEN\DESKTOP\MINIGAME\COCOS2D\COCOS\EDITOR-SUPPORT\SPINE\EXTENSION.C
^C:\USERS\ZOGEN\DESKTOP\MINIGAME\COCOS2D\COCOS\EDITOR-SUPPORT\SPINE\IKCONSTRAINT.C
/c /IC:\USERS\ZOGEN\DESKTOP\MINIGAME\COCOS2D\COCOS\2D\..\..\ /I"C:\USERS\ZOGEN\DESKTOP\MINIGAME\COCOS2D\COCOS\2D\..\..\COCOS\EDITOR-SUPPORT" /IC:\USERS\ZOGEN\DESKTOP\MINIGAME\COCOS2D\COCOS\2D\..\..\EXTENSIONS /IC:\USERS\ZOGEN\DESKTOP\MINIGAME\COCOS2D\COCOS\2D\..\..\COCOS /I"C:\USERS\ZOGEN\DESKTOP\MINIGAME\COCOS2D\COCOS\2D\..\..\COCOS/EDITOR-SUPPORT" /IC:\USERS\ZOGEN\DESKTOP\MINIGAME\COCOS2D\COCOS\2D\..\..\EXTERNAL\GLFW3\INCLUDE\WIN32 /I"C:\USERS\ZOGEN\DESKTOP\MINIGAME\COCOS2D\COCOS\2D\..\..\EXTERNAL\WIN32-SPECIFIC\GLES\INCLUDE\OGLES" /IC:\USERS\ZOGEN\DESKTOP\MINIGAME\COCOS2D\COCOS\2D\..\..\EXTERNAL\FREETYPE2\INCLUDE\WIN32\FREETYPE2 /IC:\USERS\ZOGEN\DESKTOP\MINIGAME\COCOS2D\COCOS\2D\..\..\EXTERNAL\FREETYPE2\INCLUDE\WIN32\ /IC:\USERS\ZOGEN\DESKTOP\MINIGAME\COCOS2D\COCOS\2D\..\..\EXTERNAL /IC:\USERS\ZOGEN\DESKTOP\MINIGAME\COCOS2D\COCOS\2D\..\..\EXTERNAL\OPENSSL\INCLUDE\WIN32 /nologo /W3 /WX- /diagnostics:column /O1 /Oi /Oy- /D WIN32 /D _WINDOWS /D _LIB /D COCOS2DXWIN32_EXPORTS /D GL_GLEXT_PROTOTYPES /D _CRT_SECURE_NO_WARNINGS /D _SCL_SECURE_NO_WARNINGS /D _VARIADIC_MAX=10 /D _UNICODE /D UNICODE /Gm- /EHsc /MD /GS /Gy /fp:precise /Zc:wchar_t /Zc:forScope /Zc:inline /Fo"RELEASE.WIN32\\" /Fd"RELEASE.WIN32\LIBSPINE.PDB" /Gd /TC /analyze- /FC C:\USERS\ZOGEN\DESKTOP\MINIGAME\COCOS2D\COCOS\EDITOR-SUPPORT\SPINE\IKCONSTRAINT.C
^C:\USERS\ZOGEN\DESKTOP\MINIGAME\COCOS2D\COCOS\EDITOR-SUPPORT\SPINE\IKCONSTRAINTDATA.C
/c /IC:\USERS\ZOGEN\DESKTOP\MINIGAME\COCOS2D\COCOS\2D\..\..\ /I"C:\USERS\ZOGEN\DESKTOP\MINIGAME\COCOS2D\COCOS\2D\..\..\COCOS\EDITOR-SUPPORT" /IC:\USERS\ZOGEN\DESKTOP\MINIGAME\COCOS2D\COCOS\2D\..\..\EXTENSIONS /IC:\USERS\ZOGEN\DESKTOP\MINIGAME\COCOS2D\COCOS\2D\..\..\COCOS /I"C:\USERS\ZOGEN\DESKTOP\MINIGAME\COCOS2D\COCOS\2D\..\..\COCOS/EDITOR-SUPPORT" /IC:\USERS\ZOGEN\DESKTOP\MINIGAME\COCOS2D\COCOS\2D\..\..\EXTERNAL\GLFW3\INCLUDE\WIN32 /I"C:\USERS\ZOGEN\DESKTOP\MINIGAME\COCOS2D\COCOS\2D\..\..\EXTERNAL\WIN32-SPECIFIC\GLES\INCLUDE\OGLES" /IC:\USERS\ZOGEN\DESKTOP\MINIGAME\COCOS2D\COCOS\2D\..\..\EXTERNAL\FREETYPE2\INCLUDE\WIN32\FREETYPE2 /IC:\USERS\ZOGEN\DESKTOP\MINIGAME\COCOS2D\COCOS\2D\..\..\EXTERNAL\FREETYPE2\INCLUDE\WIN32\ /IC:\USERS\ZOGEN\DESKTOP\MINIGAME\COCOS2D\COCOS\2D\..\..\EXTERNAL /IC:\USERS\ZOGEN\DESKTOP\MINIGAME\COCOS2D\COCOS\2D\..\..\EXTERNAL\OPENSSL\INCLUDE\WIN32 /nologo /W3 /WX- /diagnostics:column /O1 /Oi /Oy- /D WIN32 /D _WINDOWS /D _LIB /D COCOS2DXWIN32_EXPORTS /D GL_GLEXT_PROTOTYPES /D _CRT_SECURE_NO_WARNINGS /D _SCL_SECURE_NO_WARNINGS /D _VARIADIC_MAX=10 /D _UNICODE /D UNICODE /Gm- /EHsc /MD /GS /Gy /fp:precise /Zc:wchar_t /Zc:forScope /Zc:inline /Fo"RELEASE.WIN32\\" /Fd"RELEASE.WIN32\LIBSPINE.PDB" /Gd /TC /analyze- /FC C:\USERS\ZOGEN\DESKTOP\MINIGAME\COCOS2D\COCOS\EDITOR-SUPPORT\SPINE\IKCONSTRAINTDATA.C
^C:\USERS\ZOGEN\DESKTOP\MINIGAME\COCOS2D\COCOS\EDITOR-SUPPORT\SPINE\JSON.C
/c /IC:\USERS\ZOGEN\DESKTOP\MINIGAME\COCOS2D\COCOS\2D\..\..\ /I"C:\USERS\ZOGEN\DESKTOP\MINIGAME\COCOS2D\COCOS\2D\..\..\COCOS\EDITOR-SUPPORT" /IC:\USERS\ZOGEN\DESKTOP\MINIGAME\COCOS2D\COCOS\2D\..\..\EXTENSIONS /IC:\USERS\ZOGEN\DESKTOP\MINIGAME\COCOS2D\COCOS\2D\..\..\COCOS /I"C:\USERS\ZOGEN\DESKTOP\MINIGAME\COCOS2D\COCOS\2D\..\..\COCOS/EDITOR-SUPPORT" /IC:\USERS\ZOGEN\DESKTOP\MINIGAME\COCOS2D\COCOS\2D\..\..\EXTERNAL\GLFW3\INCLUDE\WIN32 /I"C:\USERS\ZOGEN\DESKTOP\MINIGAME\COCOS2D\COCOS\2D\..\..\EXTERNAL\WIN32-SPECIFIC\GLES\INCLUDE\OGLES" /IC:\USERS\ZOGEN\DESKTOP\MINIGAME\COCOS2D\COCOS\2D\..\..\EXTERNAL\FREETYPE2\INCLUDE\WIN32\FREETYPE2 /IC:\USERS\ZOGEN\DESKTOP\MINIGAME\COCOS2D\COCOS\2D\..\..\EXTERNAL\FREETYPE2\INCLUDE\WIN32\ /IC:\USERS\ZOGEN\DESKTOP\MINIGAME\COCOS2D\COCOS\2D\..\..\EXTERNAL /IC:\USERS\ZOGEN\DESKTOP\MINIGAME\COCOS2D\COCOS\2D\..\..\EXTERNAL\OPENSSL\INCLUDE\WIN32 /nologo /W3 /WX- /diagnostics:column /O1 /Oi /Oy- /D WIN32 /D _WINDOWS /D _LIB /D COCOS2DXWIN32_EXPORTS /D GL_GLEXT_PROTOTYPES /D _CRT_SECURE_NO_WARNINGS /D _SCL_SECURE_NO_WARNINGS /D _VARIADIC_MAX=10 /D _UNICODE /D UNICODE /Gm- /EHsc /MD /GS /Gy /fp:precise /Zc:wchar_t /Zc:forScope /Zc:inline /Fo"RELEASE.WIN32\\" /Fd"RELEASE.WIN32\LIBSPINE.PDB" /Gd /TC /analyze- /FC C:\USERS\ZOGEN\DESKTOP\MINIGAME\COCOS2D\COCOS\EDITOR-SUPPORT\SPINE\JSON.C
^C:\USERS\ZOGEN\DESKTOP\MINIGAME\COCOS2D\COCOS\EDITOR-SUPPORT\SPINE\MESHATTACHMENT.C
/c /IC:\USERS\ZOGEN\DESKTOP\MINIGAME\COCOS2D\COCOS\2D\..\..\ /I"C:\USERS\ZOGEN\DESKTOP\MINIGAME\COCOS2D\COCOS\2D\..\..\COCOS\EDITOR-SUPPORT" /IC:\USERS\ZOGEN\DESKTOP\MINIGAME\COCOS2D\COCOS\2D\..\..\EXTENSIONS /IC:\USERS\ZOGEN\DESKTOP\MINIGAME\COCOS2D\COCOS\2D\..\..\COCOS /I"C:\USERS\ZOGEN\DESKTOP\MINIGAME\COCOS2D\COCOS\2D\..\..\COCOS/EDITOR-SUPPORT" /IC:\USERS\ZOGEN\DESKTOP\MINIGAME\COCOS2D\COCOS\2D\..\..\EXTERNAL\GLFW3\INCLUDE\WIN32 /I"C:\USERS\ZOGEN\DESKTOP\MINIGAME\COCOS2D\COCOS\2D\..\..\EXTERNAL\WIN32-SPECIFIC\GLES\INCLUDE\OGLES" /IC:\USERS\ZOGEN\DESKTOP\MINIGAME\COCOS2D\COCOS\2D\..\..\EXTERNAL\FREETYPE2\INCLUDE\WIN32\FREETYPE2 /IC:\USERS\ZOGEN\DESKTOP\MINIGAME\COCOS2D\COCOS\2D\..\..\EXTERNAL\FREETYPE2\INCLUDE\WIN32\ /IC:\USERS\ZOGEN\DESKTOP\MINIGAME\COCOS2D\COCOS\2D\..\..\EXTERNAL /IC:\USERS\ZOGEN\DESKTOP\MINIGAME\COCOS2D\COCOS\2D\..\..\EXTERNAL\OPENSSL\INCLUDE\WIN32 /nologo /W3 /WX- /diagnostics:column /O1 /Oi /Oy- /D WIN32 /D _WINDOWS /D _LIB /D COCOS2DXWIN32_EXPORTS /D GL_GLEXT_PROTOTYPES /D _CRT_SECURE_NO_WARNINGS /D _SCL_SECURE_NO_WARNINGS /D _VARIADIC_MAX=10 /D _UNICODE /D UNICODE /Gm- /EHsc /MD /GS /Gy /fp:precise /Zc:wchar_t /Zc:forScope /Zc:inline /Fo"RELEASE.WIN32\\" /Fd"RELEASE.WIN32\LIBSPINE.PDB" /Gd /TC /analyze- /FC C:\USERS\ZOGEN\DESKTOP\MINIGAME\COCOS2D\COCOS\EDITOR-SUPPORT\SPINE\MESHATTACHMENT.C
^C:\USERS\ZOGEN\DESKTOP\MINIGAME\COCOS2D\COCOS\EDITOR-SUPPORT\SPINE\PATHATTACHMENT.C
/c /IC:\USERS\ZOGEN\DESKTOP\MINIGAME\COCOS2D\COCOS\2D\..\..\ /I"C:\USERS\ZOGEN\DESKTOP\MINIGAME\COCOS2D\COCOS\2D\..\..\COCOS\EDITOR-SUPPORT" /IC:\USERS\ZOGEN\DESKTOP\MINIGAME\COCOS2D\COCOS\2D\..\..\EXTENSIONS /IC:\USERS\ZOGEN\DESKTOP\MINIGAME\COCOS2D\COCOS\2D\..\..\COCOS /I"C:\USERS\ZOGEN\DESKTOP\MINIGAME\COCOS2D\COCOS\2D\..\..\COCOS/EDITOR-SUPPORT" /IC:\USERS\ZOGEN\DESKTOP\MINIGAME\COCOS2D\COCOS\2D\..\..\EXTERNAL\GLFW3\INCLUDE\WIN32 /I"C:\USERS\ZOGEN\DESKTOP\MINIGAME\COCOS2D\COCOS\2D\..\..\EXTERNAL\WIN32-SPECIFIC\GLES\INCLUDE\OGLES" /IC:\USERS\ZOGEN\DESKTOP\MINIGAME\COCOS2D\COCOS\2D\..\..\EXTERNAL\FREETYPE2\INCLUDE\WIN32\FREETYPE2 /IC:\USERS\ZOGEN\DESKTOP\MINIGAME\COCOS2D\COCOS\2D\..\..\EXTERNAL\FREETYPE2\INCLUDE\WIN32\ /IC:\USERS\ZOGEN\DESKTOP\MINIGAME\COCOS2D\COCOS\2D\..\..\EXTERNAL /IC:\USERS\ZOGEN\DESKTOP\MINIGAME\COCOS2D\COCOS\2D\..\..\EXTERNAL\OPENSSL\INCLUDE\WIN32 /nologo /W3 /WX- /diagnostics:column /O1 /Oi /Oy- /D WIN32 /D _WINDOWS /D _LIB /D COCOS2DXWIN32_EXPORTS /D GL_GLEXT_PROTOTYPES /D _CRT_SECURE_NO_WARNINGS /D _SCL_SECURE_NO_WARNINGS /D _VARIADIC_MAX=10 /D _UNICODE /D UNICODE /Gm- /EHsc /MD /GS /Gy /fp:precise /Zc:wchar_t /Zc:forScope /Zc:inline /Fo"RELEASE.WIN32\\" /Fd"RELEASE.WIN32\LIBSPINE.PDB" /Gd /TC /analyze- /FC C:\USERS\ZOGEN\DESKTOP\MINIGAME\COCOS2D\COCOS\EDITOR-SUPPORT\SPINE\PATHATTACHMENT.C
^C:\USERS\ZOGEN\DESKTOP\MINIGAME\COCOS2D\COCOS\EDITOR-SUPPORT\SPINE\PATHCONSTRAINT.C
/c /IC:\USERS\ZOGEN\DESKTOP\MINIGAME\COCOS2D\COCOS\2D\..\..\ /I"C:\USERS\ZOGEN\DESKTOP\MINIGAME\COCOS2D\COCOS\2D\..\..\COCOS\EDITOR-SUPPORT" /IC:\USERS\ZOGEN\DESKTOP\MINIGAME\COCOS2D\COCOS\2D\..\..\EXTENSIONS /IC:\USERS\ZOGEN\DESKTOP\MINIGAME\COCOS2D\COCOS\2D\..\..\COCOS /I"C:\USERS\ZOGEN\DESKTOP\MINIGAME\COCOS2D\COCOS\2D\..\..\COCOS/EDITOR-SUPPORT" /IC:\USERS\ZOGEN\DESKTOP\MINIGAME\COCOS2D\COCOS\2D\..\..\EXTERNAL\GLFW3\INCLUDE\WIN32 /I"C:\USERS\ZOGEN\DESKTOP\MINIGAME\COCOS2D\COCOS\2D\..\..\EXTERNAL\WIN32-SPECIFIC\GLES\INCLUDE\OGLES" /IC:\USERS\ZOGEN\DESKTOP\MINIGAME\COCOS2D\COCOS\2D\..\..\EXTERNAL\FREETYPE2\INCLUDE\WIN32\FREETYPE2 /IC:\USERS\ZOGEN\DESKTOP\MINIGAME\COCOS2D\COCOS\2D\..\..\EXTERNAL\FREETYPE2\INCLUDE\WIN32\ /IC:\USERS\ZOGEN\DESKTOP\MINIGAME\COCOS2D\COCOS\2D\..\..\EXTERNAL /IC:\USERS\ZOGEN\DESKTOP\MINIGAME\COCOS2D\COCOS\2D\..\..\EXTERNAL\OPENSSL\INCLUDE\WIN32 /nologo /W3 /WX- /diagnostics:column /O1 /Oi /Oy- /D WIN32 /D _WINDOWS /D _LIB /D COCOS2DXWIN32_EXPORTS /D GL_GLEXT_PROTOTYPES /D _CRT_SECURE_NO_WARNINGS /D _SCL_SECURE_NO_WARNINGS /D _VARIADIC_MAX=10 /D _UNICODE /D UNICODE /Gm- /EHsc /MD /GS /Gy /fp:precise /Zc:wchar_t /Zc:forScope /Zc:inline /Fo"RELEASE.WIN32\\" /Fd"RELEASE.WIN32\LIBSPINE.PDB" /Gd /TC /analyze- /FC C:\USERS\ZOGEN\DESKTOP\MINIGAME\COCOS2D\COCOS\EDITOR-SUPPORT\SPINE\PATHCONSTRAINT.C
^C:\USERS\ZOGEN\DESKTOP\MINIGAME\COCOS2D\COCOS\EDITOR-SUPPORT\SPINE\PATHCONSTRAINTDATA.C
/c /IC:\USERS\ZOGEN\DESKTOP\MINIGAME\COCOS2D\COCOS\2D\..\..\ /I"C:\USERS\ZOGEN\DESKTOP\MINIGAME\COCOS2D\COCOS\2D\..\..\COCOS\EDITOR-SUPPORT" /IC:\USERS\ZOGEN\DESKTOP\MINIGAME\COCOS2D\COCOS\2D\..\..\EXTENSIONS /IC:\USERS\ZOGEN\DESKTOP\MINIGAME\COCOS2D\COCOS\2D\..\..\COCOS /I"C:\USERS\ZOGEN\DESKTOP\MINIGAME\COCOS2D\COCOS\2D\..\..\COCOS/EDITOR-SUPPORT" /IC:\USERS\ZOGEN\DESKTOP\MINIGAME\COCOS2D\COCOS\2D\..\..\EXTERNAL\GLFW3\INCLUDE\WIN32 /I"C:\USERS\ZOGEN\DESKTOP\MINIGAME\COCOS2D\COCOS\2D\..\..\EXTERNAL\WIN32-SPECIFIC\GLES\INCLUDE\OGLES" /IC:\USERS\ZOGEN\DESKTOP\MINIGAME\COCOS2D\COCOS\2D\..\..\EXTERNAL\FREETYPE2\INCLUDE\WIN32\FREETYPE2 /IC:\USERS\ZOGEN\DESKTOP\MINIGAME\COCOS2D\COCOS\2D\..\..\EXTERNAL\FREETYPE2\INCLUDE\WIN32\ /IC:\USERS\ZOGEN\DESKTOP\MINIGAME\COCOS2D\COCOS\2D\..\..\EXTERNAL /IC:\USERS\ZOGEN\DESKTOP\MINIGAME\COCOS2D\COCOS\2D\..\..\EXTERNAL\OPENSSL\INCLUDE\WIN32 /nologo /W3 /WX- /diagnostics:column /O1 /Oi /Oy- /D WIN32 /D _WINDOWS /D _LIB /D COCOS2DXWIN32_EXPORTS /D GL_GLEXT_PROTOTYPES /D _CRT_SECURE_NO_WARNINGS /D _SCL_SECURE_NO_WARNINGS /D _VARIADIC_MAX=10 /D _UNICODE /D UNICODE /Gm- /EHsc /MD /GS /Gy /fp:precise /Zc:wchar_t /Zc:forScope /Zc:inline /Fo"RELEASE.WIN32\\" /Fd"RELEASE.WIN32\LIBSPINE.PDB" /Gd /TC /analyze- /FC C:\USERS\ZOGEN\DESKTOP\MINIGAME\COCOS2D\COCOS\EDITOR-SUPPORT\SPINE\PATHCONSTRAINTDATA.C
^C:\USERS\ZOGEN\DESKTOP\MINIGAME\COCOS2D\COCOS\EDITOR-SUPPORT\SPINE\POINTATTACHMENT.C
/c /IC:\USERS\ZOGEN\DESKTOP\MINIGAME\COCOS2D\COCOS\2D\..\..\ /I"C:\USERS\ZOGEN\DESKTOP\MINIGAME\COCOS2D\COCOS\2D\..\..\COCOS\EDITOR-SUPPORT" /IC:\USERS\ZOGEN\DESKTOP\MINIGAME\COCOS2D\COCOS\2D\..\..\EXTENSIONS /IC:\USERS\ZOGEN\DESKTOP\MINIGAME\COCOS2D\COCOS\2D\..\..\COCOS /I"C:\USERS\ZOGEN\DESKTOP\MINIGAME\COCOS2D\COCOS\2D\..\..\COCOS/EDITOR-SUPPORT" /IC:\USERS\ZOGEN\DESKTOP\MINIGAME\COCOS2D\COCOS\2D\..\..\EXTERNAL\GLFW3\INCLUDE\WIN32 /I"C:\USERS\ZOGEN\DESKTOP\MINIGAME\COCOS2D\COCOS\2D\..\..\EXTERNAL\WIN32-SPECIFIC\GLES\INCLUDE\OGLES" /IC:\USERS\ZOGEN\DESKTOP\MINIGAME\COCOS2D\COCOS\2D\..\..\EXTERNAL\FREETYPE2\INCLUDE\WIN32\FREETYPE2 /IC:\USERS\ZOGEN\DESKTOP\MINIGAME\COCOS2D\COCOS\2D\..\..\EXTERNAL\FREETYPE2\INCLUDE\WIN32\ /IC:\USERS\ZOGEN\DESKTOP\MINIGAME\COCOS2D\COCOS\2D\..\..\EXTERNAL /IC:\USERS\ZOGEN\DESKTOP\MINIGAME\COCOS2D\COCOS\2D\..\..\EXTERNAL\OPENSSL\INCLUDE\WIN32 /nologo /W3 /WX- /diagnostics:column /O1 /Oi /Oy- /D WIN32 /D _WINDOWS /D _LIB /D COCOS2DXWIN32_EXPORTS /D GL_GLEXT_PROTOTYPES /D _CRT_SECURE_NO_WARNINGS /D _SCL_SECURE_NO_WARNINGS /D _VARIADIC_MAX=10 /D _UNICODE /D UNICODE /Gm- /EHsc /MD /GS /Gy /fp:precise /Zc:wchar_t /Zc:forScope /Zc:inline /Fo"RELEASE.WIN32\\" /Fd"RELEASE.WIN32\LIBSPINE.PDB" /Gd /TC /analyze- /FC C:\USERS\ZOGEN\DESKTOP\MINIGAME\COCOS2D\COCOS\EDITOR-SUPPORT\SPINE\POINTATTACHMENT.C
^C:\USERS\ZOGEN\DESKTOP\MINIGAME\COCOS2D\COCOS\EDITOR-SUPPORT\SPINE\REGIONATTACHMENT.C
/c /IC:\USERS\ZOGEN\DESKTOP\MINIGAME\COCOS2D\COCOS\2D\..\..\ /I"C:\USERS\ZOGEN\DESKTOP\MINIGAME\COCOS2D\COCOS\2D\..\..\COCOS\EDITOR-SUPPORT" /IC:\USERS\ZOGEN\DESKTOP\MINIGAME\COCOS2D\COCOS\2D\..\..\EXTENSIONS /IC:\USERS\ZOGEN\DESKTOP\MINIGAME\COCOS2D\COCOS\2D\..\..\COCOS /I"C:\USERS\ZOGEN\DESKTOP\MINIGAME\COCOS2D\COCOS\2D\..\..\COCOS/EDITOR-SUPPORT" /IC:\USERS\ZOGEN\DESKTOP\MINIGAME\COCOS2D\COCOS\2D\..\..\EXTERNAL\GLFW3\INCLUDE\WIN32 /I"C:\USERS\ZOGEN\DESKTOP\MINIGAME\COCOS2D\COCOS\2D\..\..\EXTERNAL\WIN32-SPECIFIC\GLES\INCLUDE\OGLES" /IC:\USERS\ZOGEN\DESKTOP\MINIGAME\COCOS2D\COCOS\2D\..\..\EXTERNAL\FREETYPE2\INCLUDE\WIN32\FREETYPE2 /IC:\USERS\ZOGEN\DESKTOP\MINIGAME\COCOS2D\COCOS\2D\..\..\EXTERNAL\FREETYPE2\INCLUDE\WIN32\ /IC:\USERS\ZOGEN\DESKTOP\MINIGAME\COCOS2D\COCOS\2D\..\..\EXTERNAL /IC:\USERS\ZOGEN\DESKTOP\MINIGAME\COCOS2D\COCOS\2D\..\..\EXTERNAL\OPENSSL\INCLUDE\WIN32 /nologo /W3 /WX- /diagnostics:column /O1 /Oi /Oy- /D WIN32 /D _WINDOWS /D _LIB /D COCOS2DXWIN32_EXPORTS /D GL_GLEXT_PROTOTYPES /D _CRT_SECURE_NO_WARNINGS /D _SCL_SECURE_NO_WARNINGS /D _VARIADIC_MAX=10 /D _UNICODE /D UNICODE /Gm- /EHsc /MD /GS /Gy /fp:precise /Zc:wchar_t /Zc:forScope /Zc:inline /Fo"RELEASE.WIN32\\" /Fd"RELEASE.WIN32\LIBSPINE.PDB" /Gd /TC /analyze- /FC C:\USERS\ZOGEN\DESKTOP\MINIGAME\COCOS2D\COCOS\EDITOR-SUPPORT\SPINE\REGIONATTACHMENT.C
^C:\USERS\ZOGEN\DESKTOP\MINIGAME\COCOS2D\COCOS\EDITOR-SUPPORT\SPINE\SKELETON.C
/c /IC:\USERS\ZOGEN\DESKTOP\MINIGAME\COCOS2D\COCOS\2D\..\..\ /I"C:\USERS\ZOGEN\DESKTOP\MINIGAME\COCOS2D\COCOS\2D\..\..\COCOS\EDITOR-SUPPORT" /IC:\USERS\ZOGEN\DESKTOP\MINIGAME\COCOS2D\COCOS\2D\..\..\EXTENSIONS /IC:\USERS\ZOGEN\DESKTOP\MINIGAME\COCOS2D\COCOS\2D\..\..\COCOS /I"C:\USERS\ZOGEN\DESKTOP\MINIGAME\COCOS2D\COCOS\2D\..\..\COCOS/EDITOR-SUPPORT" /IC:\USERS\ZOGEN\DESKTOP\MINIGAME\COCOS2D\COCOS\2D\..\..\EXTERNAL\GLFW3\INCLUDE\WIN32 /I"C:\USERS\ZOGEN\DESKTOP\MINIGAME\COCOS2D\COCOS\2D\..\..\EXTERNAL\WIN32-SPECIFIC\GLES\INCLUDE\OGLES" /IC:\USERS\ZOGEN\DESKTOP\MINIGAME\COCOS2D\COCOS\2D\..\..\EXTERNAL\FREETYPE2\INCLUDE\WIN32\FREETYPE2 /IC:\USERS\ZOGEN\DESKTOP\MINIGAME\COCOS2D\COCOS\2D\..\..\EXTERNAL\FREETYPE2\INCLUDE\WIN32\ /IC:\USERS\ZOGEN\DESKTOP\MINIGAME\COCOS2D\COCOS\2D\..\..\EXTERNAL /IC:\USERS\ZOGEN\DESKTOP\MINIGAME\COCOS2D\COCOS\2D\..\..\EXTERNAL\OPENSSL\INCLUDE\WIN32 /nologo /W3 /WX- /diagnostics:column /O1 /Oi /Oy- /D WIN32 /D _WINDOWS /D _LIB /D COCOS2DXWIN32_EXPORTS /D GL_GLEXT_PROTOTYPES /D _CRT_SECURE_NO_WARNINGS /D _SCL_SECURE_NO_WARNINGS /D _VARIADIC_MAX=10 /D _UNICODE /D UNICODE /Gm- /EHsc /MD /GS /Gy /fp:precise /Zc:wchar_t /Zc:forScope /Zc:inline /Fo"RELEASE.WIN32\\" /Fd"RELEASE.WIN32\LIBSPINE.PDB" /Gd /TC /analyze- /FC C:\USERS\ZOGEN\DESKTOP\MINIGAME\COCOS2D\COCOS\EDITOR-SUPPORT\SPINE\SKELETON.C
^C:\USERS\ZOGEN\DESKTOP\MINIGAME\COCOS2D\COCOS\EDITOR-SUPPORT\SPINE\SKELETONBINARY.C
/c /IC:\USERS\ZOGEN\DESKTOP\MINIGAME\COCOS2D\COCOS\2D\..\..\ /I"C:\USERS\ZOGEN\DESKTOP\MINIGAME\COCOS2D\COCOS\2D\..\..\COCOS\EDITOR-SUPPORT" /IC:\USERS\ZOGEN\DESKTOP\MINIGAME\COCOS2D\COCOS\2D\..\..\EXTENSIONS /IC:\USERS\ZOGEN\DESKTOP\MINIGAME\COCOS2D\COCOS\2D\..\..\COCOS /I"C:\USERS\ZOGEN\DESKTOP\MINIGAME\COCOS2D\COCOS\2D\..\..\COCOS/EDITOR-SUPPORT" /IC:\USERS\ZOGEN\DESKTOP\MINIGAME\COCOS2D\COCOS\2D\..\..\EXTERNAL\GLFW3\INCLUDE\WIN32 /I"C:\USERS\ZOGEN\DESKTOP\MINIGAME\COCOS2D\COCOS\2D\..\..\EXTERNAL\WIN32-SPECIFIC\GLES\INCLUDE\OGLES" /IC:\USERS\ZOGEN\DESKTOP\MINIGAME\COCOS2D\COCOS\2D\..\..\EXTERNAL\FREETYPE2\INCLUDE\WIN32\FREETYPE2 /IC:\USERS\ZOGEN\DESKTOP\MINIGAME\COCOS2D\COCOS\2D\..\..\EXTERNAL\FREETYPE2\INCLUDE\WIN32\ /IC:\USERS\ZOGEN\DESKTOP\MINIGAME\COCOS2D\COCOS\2D\..\..\EXTERNAL /IC:\USERS\ZOGEN\DESKTOP\MINIGAME\COCOS2D\COCOS\2D\..\..\EXTERNAL\OPENSSL\INCLUDE\WIN32 /nologo /W3 /WX- /diagnostics:column /O1 /Oi /Oy- /D WIN32 /D _WINDOWS /D _LIB /D COCOS2DXWIN32_EXPORTS /D GL_GLEXT_PROTOTYPES /D _CRT_SECURE_NO_WARNINGS /D _SCL_SECURE_NO_WARNINGS /D _VARIADIC_MAX=10 /D _UNICODE /D UNICODE /Gm- /EHsc /MD /GS /Gy /fp:precise /Zc:wchar_t /Zc:forScope /Zc:inline /Fo"RELEASE.WIN32\\" /Fd"RELEASE.WIN32\LIBSPINE.PDB" /Gd /TC /analyze- /FC C:\USERS\ZOGEN\DESKTOP\MINIGAME\COCOS2D\COCOS\EDITOR-SUPPORT\SPINE\SKELETONBINARY.C
^C:\USERS\ZOGEN\DESKTOP\MINIGAME\COCOS2D\COCOS\EDITOR-SUPPORT\SPINE\SKELETONBOUNDS.C
/c /IC:\USERS\ZOGEN\DESKTOP\MINIGAME\COCOS2D\COCOS\2D\..\..\ /I"C:\USERS\ZOGEN\DESKTOP\MINIGAME\COCOS2D\COCOS\2D\..\..\COCOS\EDITOR-SUPPORT" /IC:\USERS\ZOGEN\DESKTOP\MINIGAME\COCOS2D\COCOS\2D\..\..\EXTENSIONS /IC:\USERS\ZOGEN\DESKTOP\MINIGAME\COCOS2D\COCOS\2D\..\..\COCOS /I"C:\USERS\ZOGEN\DESKTOP\MINIGAME\COCOS2D\COCOS\2D\..\..\COCOS/EDITOR-SUPPORT" /IC:\USERS\ZOGEN\DESKTOP\MINIGAME\COCOS2D\COCOS\2D\..\..\EXTERNAL\GLFW3\INCLUDE\WIN32 /I"C:\USERS\ZOGEN\DESKTOP\MINIGAME\COCOS2D\COCOS\2D\..\..\EXTERNAL\WIN32-SPECIFIC\GLES\INCLUDE\OGLES" /IC:\USERS\ZOGEN\DESKTOP\MINIGAME\COCOS2D\COCOS\2D\..\..\EXTERNAL\FREETYPE2\INCLUDE\WIN32\FREETYPE2 /IC:\USERS\ZOGEN\DESKTOP\MINIGAME\COCOS2D\COCOS\2D\..\..\EXTERNAL\FREETYPE2\INCLUDE\WIN32\ /IC:\USERS\ZOGEN\DESKTOP\MINIGAME\COCOS2D\COCOS\2D\..\..\EXTERNAL /IC:\USERS\ZOGEN\DESKTOP\MINIGAME\COCOS2D\COCOS\2D\..\..\EXTERNAL\OPENSSL\INCLUDE\WIN32 /nologo /W3 /WX- /diagnostics:column /O1 /Oi /Oy- /D WIN32 /D _WINDOWS /D _LIB /D COCOS2DXWIN32_EXPORTS /D GL_GLEXT_PROTOTYPES /D _CRT_SECURE_NO_WARNINGS /D _SCL_SECURE_NO_WARNINGS /D _VARIADIC_MAX=10 /D _UNICODE /D UNICODE /Gm- /EHsc /MD /GS /Gy /fp:precise /Zc:wchar_t /Zc:forScope /Zc:inline /Fo"RELEASE.WIN32\\" /Fd"RELEASE.WIN32\LIBSPINE.PDB" /Gd /TC /analyze- /FC C:\USERS\ZOGEN\DESKTOP\MINIGAME\COCOS2D\COCOS\EDITOR-SUPPORT\SPINE\SKELETONBOUNDS.C
^C:\USERS\ZOGEN\DESKTOP\MINIGAME\COCOS2D\COCOS\EDITOR-SUPPORT\SPINE\SKELETONCLIPPING.C
/c /IC:\USERS\ZOGEN\DESKTOP\MINIGAME\COCOS2D\COCOS\2D\..\..\ /I"C:\USERS\ZOGEN\DESKTOP\MINIGAME\COCOS2D\COCOS\2D\..\..\COCOS\EDITOR-SUPPORT" /IC:\USERS\ZOGEN\DESKTOP\MINIGAME\COCOS2D\COCOS\2D\..\..\EXTENSIONS /IC:\USERS\ZOGEN\DESKTOP\MINIGAME\COCOS2D\COCOS\2D\..\..\COCOS /I"C:\USERS\ZOGEN\DESKTOP\MINIGAME\COCOS2D\COCOS\2D\..\..\COCOS/EDITOR-SUPPORT" /IC:\USERS\ZOGEN\DESKTOP\MINIGAME\COCOS2D\COCOS\2D\..\..\EXTERNAL\GLFW3\INCLUDE\WIN32 /I"C:\USERS\ZOGEN\DESKTOP\MINIGAME\COCOS2D\COCOS\2D\..\..\EXTERNAL\WIN32-SPECIFIC\GLES\INCLUDE\OGLES" /IC:\USERS\ZOGEN\DESKTOP\MINIGAME\COCOS2D\COCOS\2D\..\..\EXTERNAL\FREETYPE2\INCLUDE\WIN32\FREETYPE2 /IC:\USERS\ZOGEN\DESKTOP\MINIGAME\COCOS2D\COCOS\2D\..\..\EXTERNAL\FREETYPE2\INCLUDE\WIN32\ /IC:\USERS\ZOGEN\DESKTOP\MINIGAME\COCOS2D\COCOS\2D\..\..\EXTERNAL /IC:\USERS\ZOGEN\DESKTOP\MINIGAME\COCOS2D\COCOS\2D\..\..\EXTERNAL\OPENSSL\INCLUDE\WIN32 /nologo /W3 /WX- /diagnostics:column /O1 /Oi /Oy- /D WIN32 /D _WINDOWS /D _LIB /D COCOS2DXWIN32_EXPORTS /D GL_GLEXT_PROTOTYPES /D _CRT_SECURE_NO_WARNINGS /D _SCL_SECURE_NO_WARNINGS /D _VARIADIC_MAX=10 /D _UNICODE /D UNICODE /Gm- /EHsc /MD /GS /Gy /fp:precise /Zc:wchar_t /Zc:forScope /Zc:inline /Fo"RELEASE.WIN32\\" /Fd"RELEASE.WIN32\LIBSPINE.PDB" /Gd /TC /analyze- /FC C:\USERS\ZOGEN\DESKTOP\MINIGAME\COCOS2D\COCOS\EDITOR-SUPPORT\SPINE\SKELETONCLIPPING.C
^C:\USERS\ZOGEN\DESKTOP\MINIGAME\COCOS2D\COCOS\EDITOR-SUPPORT\SPINE\SKELETONDATA.C
/c /IC:\USERS\ZOGEN\DESKTOP\MINIGAME\COCOS2D\COCOS\2D\..\..\ /I"C:\USERS\ZOGEN\DESKTOP\MINIGAME\COCOS2D\COCOS\2D\..\..\COCOS\EDITOR-SUPPORT" /IC:\USERS\ZOGEN\DESKTOP\MINIGAME\COCOS2D\COCOS\2D\..\..\EXTENSIONS /IC:\USERS\ZOGEN\DESKTOP\MINIGAME\COCOS2D\COCOS\2D\..\..\COCOS /I"C:\USERS\ZOGEN\DESKTOP\MINIGAME\COCOS2D\COCOS\2D\..\..\COCOS/EDITOR-SUPPORT" /IC:\USERS\ZOGEN\DESKTOP\MINIGAME\COCOS2D\COCOS\2D\..\..\EXTERNAL\GLFW3\INCLUDE\WIN32 /I"C:\USERS\ZOGEN\DESKTOP\MINIGAME\COCOS2D\COCOS\2D\..\..\EXTERNAL\WIN32-SPECIFIC\GLES\INCLUDE\OGLES" /IC:\USERS\ZOGEN\DESKTOP\MINIGAME\COCOS2D\COCOS\2D\..\..\EXTERNAL\FREETYPE2\INCLUDE\WIN32\FREETYPE2 /IC:\USERS\ZOGEN\DESKTOP\MINIGAME\COCOS2D\COCOS\2D\..\..\EXTERNAL\FREETYPE2\INCLUDE\WIN32\ /IC:\USERS\ZOGEN\DESKTOP\MINIGAME\COCOS2D\COCOS\2D\..\..\EXTERNAL /IC:\USERS\ZOGEN\DESKTOP\MINIGAME\COCOS2D\COCOS\2D\..\..\EXTERNAL\OPENSSL\INCLUDE\WIN32 /nologo /W3 /WX- /diagnostics:column /O1 /Oi /Oy- /D WIN32 /D _WINDOWS /D _LIB /D COCOS2DXWIN32_EXPORTS /D GL_GLEXT_PROTOTYPES /D _CRT_SECURE_NO_WARNINGS /D _SCL_SECURE_NO_WARNINGS /D _VARIADIC_MAX=10 /D _UNICODE /D UNICODE /Gm- /EHsc /MD /GS /Gy /fp:precise /Zc:wchar_t /Zc:forScope /Zc:inline /Fo"RELEASE.WIN32\\" /Fd"RELEASE.WIN32\LIBSPINE.PDB" /Gd /TC /analyze- /FC C:\USERS\ZOGEN\DESKTOP\MINIGAME\COCOS2D\COCOS\EDITOR-SUPPORT\SPINE\SKELETONDATA.C
^C:\USERS\ZOGEN\DESKTOP\MINIGAME\COCOS2D\COCOS\EDITOR-SUPPORT\SPINE\SKELETONJSON.C
/c /IC:\USERS\ZOGEN\DESKTOP\MINIGAME\COCOS2D\COCOS\2D\..\..\ /I"C:\USERS\ZOGEN\DESKTOP\MINIGAME\COCOS2D\COCOS\2D\..\..\COCOS\EDITOR-SUPPORT" /IC:\USERS\ZOGEN\DESKTOP\MINIGAME\COCOS2D\COCOS\2D\..\..\EXTENSIONS /IC:\USERS\ZOGEN\DESKTOP\MINIGAME\COCOS2D\COCOS\2D\..\..\COCOS /I"C:\USERS\ZOGEN\DESKTOP\MINIGAME\COCOS2D\COCOS\2D\..\..\COCOS/EDITOR-SUPPORT" /IC:\USERS\ZOGEN\DESKTOP\MINIGAME\COCOS2D\COCOS\2D\..\..\EXTERNAL\GLFW3\INCLUDE\WIN32 /I"C:\USERS\ZOGEN\DESKTOP\MINIGAME\COCOS2D\COCOS\2D\..\..\EXTERNAL\WIN32-SPECIFIC\GLES\INCLUDE\OGLES" /IC:\USERS\ZOGEN\DESKTOP\MINIGAME\COCOS2D\COCOS\2D\..\..\EXTERNAL\FREETYPE2\INCLUDE\WIN32\FREETYPE2 /IC:\USERS\ZOGEN\DESKTOP\MINIGAME\COCOS2D\COCOS\2D\..\..\EXTERNAL\FREETYPE2\INCLUDE\WIN32\ /IC:\USERS\ZOGEN\DESKTOP\MINIGAME\COCOS2D\COCOS\2D\..\..\EXTERNAL /IC:\USERS\ZOGEN\DESKTOP\MINIGAME\COCOS2D\COCOS\2D\..\..\EXTERNAL\OPENSSL\INCLUDE\WIN32 /nologo /W3 /WX- /diagnostics:column /O1 /Oi /Oy- /D WIN32 /D _WINDOWS /D _LIB /D COCOS2DXWIN32_EXPORTS /D GL_GLEXT_PROTOTYPES /D _CRT_SECURE_NO_WARNINGS /D _SCL_SECURE_NO_WARNINGS /D _VARIADIC_MAX=10 /D _UNICODE /D UNICODE /Gm- /EHsc /MD /GS /Gy /fp:precise /Zc:wchar_t /Zc:forScope /Zc:inline /Fo"RELEASE.WIN32\\" /Fd"RELEASE.WIN32\LIBSPINE.PDB" /Gd /TC /analyze- /FC C:\USERS\ZOGEN\DESKTOP\MINIGAME\COCOS2D\COCOS\EDITOR-SUPPORT\SPINE\SKELETONJSON.C
^C:\USERS\ZOGEN\DESKTOP\MINIGAME\COCOS2D\COCOS\EDITOR-SUPPORT\SPINE\SKIN.C
/c /IC:\USERS\ZOGEN\DESKTOP\MINIGAME\COCOS2D\COCOS\2D\..\..\ /I"C:\USERS\ZOGEN\DESKTOP\MINIGAME\COCOS2D\COCOS\2D\..\..\COCOS\EDITOR-SUPPORT" /IC:\USERS\ZOGEN\DESKTOP\MINIGAME\COCOS2D\COCOS\2D\..\..\EXTENSIONS /IC:\USERS\ZOGEN\DESKTOP\MINIGAME\COCOS2D\COCOS\2D\..\..\COCOS /I"C:\USERS\ZOGEN\DESKTOP\MINIGAME\COCOS2D\COCOS\2D\..\..\COCOS/EDITOR-SUPPORT" /IC:\USERS\ZOGEN\DESKTOP\MINIGAME\COCOS2D\COCOS\2D\..\..\EXTERNAL\GLFW3\INCLUDE\WIN32 /I"C:\USERS\ZOGEN\DESKTOP\MINIGAME\COCOS2D\COCOS\2D\..\..\EXTERNAL\WIN32-SPECIFIC\GLES\INCLUDE\OGLES" /IC:\USERS\ZOGEN\DESKTOP\MINIGAME\COCOS2D\COCOS\2D\..\..\EXTERNAL\FREETYPE2\INCLUDE\WIN32\FREETYPE2 /IC:\USERS\ZOGEN\DESKTOP\MINIGAME\COCOS2D\COCOS\2D\..\..\EXTERNAL\FREETYPE2\INCLUDE\WIN32\ /IC:\USERS\ZOGEN\DESKTOP\MINIGAME\COCOS2D\COCOS\2D\..\..\EXTERNAL /IC:\USERS\ZOGEN\DESKTOP\MINIGAME\COCOS2D\COCOS\2D\..\..\EXTERNAL\OPENSSL\INCLUDE\WIN32 /nologo /W3 /WX- /diagnostics:column /O1 /Oi /Oy- /D WIN32 /D _WINDOWS /D _LIB /D COCOS2DXWIN32_EXPORTS /D GL_GLEXT_PROTOTYPES /D _CRT_SECURE_NO_WARNINGS /D _SCL_SECURE_NO_WARNINGS /D _VARIADIC_MAX=10 /D _UNICODE /D UNICODE /Gm- /EHsc /MD /GS /Gy /fp:precise /Zc:wchar_t /Zc:forScope /Zc:inline /Fo"RELEASE.WIN32\\" /Fd"RELEASE.WIN32\LIBSPINE.PDB" /Gd /TC /analyze- /FC C:\USERS\ZOGEN\DESKTOP\MINIGAME\COCOS2D\COCOS\EDITOR-SUPPORT\SPINE\SKIN.C
^C:\USERS\ZOGEN\DESKTOP\MINIGAME\COCOS2D\COCOS\EDITOR-SUPPORT\SPINE\SLOT.C
/c /IC:\USERS\ZOGEN\DESKTOP\MINIGAME\COCOS2D\COCOS\2D\..\..\ /I"C:\USERS\ZOGEN\DESKTOP\MINIGAME\COCOS2D\COCOS\2D\..\..\COCOS\EDITOR-SUPPORT" /IC:\USERS\ZOGEN\DESKTOP\MINIGAME\COCOS2D\COCOS\2D\..\..\EXTENSIONS /IC:\USERS\ZOGEN\DESKTOP\MINIGAME\COCOS2D\COCOS\2D\..\..\COCOS /I"C:\USERS\ZOGEN\DESKTOP\MINIGAME\COCOS2D\COCOS\2D\..\..\COCOS/EDITOR-SUPPORT" /IC:\USERS\ZOGEN\DESKTOP\MINIGAME\COCOS2D\COCOS\2D\..\..\EXTERNAL\GLFW3\INCLUDE\WIN32 /I"C:\USERS\ZOGEN\DESKTOP\MINIGAME\COCOS2D\COCOS\2D\..\..\EXTERNAL\WIN32-SPECIFIC\GLES\INCLUDE\OGLES" /IC:\USERS\ZOGEN\DESKTOP\MINIGAME\COCOS2D\COCOS\2D\..\..\EXTERNAL\FREETYPE2\INCLUDE\WIN32\FREETYPE2 /IC:\USERS\ZOGEN\DESKTOP\MINIGAME\COCOS2D\COCOS\2D\..\..\EXTERNAL\FREETYPE2\INCLUDE\WIN32\ /IC:\USERS\ZOGEN\DESKTOP\MINIGAME\COCOS2D\COCOS\2D\..\..\EXTERNAL /IC:\USERS\ZOGEN\DESKTOP\MINIGAME\COCOS2D\COCOS\2D\..\..\EXTERNAL\OPENSSL\INCLUDE\WIN32 /nologo /W3 /WX- /diagnostics:column /O1 /Oi /Oy- /D WIN32 /D _WINDOWS /D _LIB /D COCOS2DXWIN32_EXPORTS /D GL_GLEXT_PROTOTYPES /D _CRT_SECURE_NO_WARNINGS /D _SCL_SECURE_NO_WARNINGS /D _VARIADIC_MAX=10 /D _UNICODE /D UNICODE /Gm- /EHsc /MD /GS /Gy /fp:precise /Zc:wchar_t /Zc:forScope /Zc:inline /Fo"RELEASE.WIN32\\" /Fd"RELEASE.WIN32\LIBSPINE.PDB" /Gd /TC /analyze- /FC C:\USERS\ZOGEN\DESKTOP\MINIGAME\COCOS2D\COCOS\EDITOR-SUPPORT\SPINE\SLOT.C
^C:\USERS\ZOGEN\DESKTOP\MINIGAME\COCOS2D\COCOS\EDITOR-SUPPORT\SPINE\SLOTDATA.C
/c /IC:\USERS\ZOGEN\DESKTOP\MINIGAME\COCOS2D\COCOS\2D\..\..\ /I"C:\USERS\ZOGEN\DESKTOP\MINIGAME\COCOS2D\COCOS\2D\..\..\COCOS\EDITOR-SUPPORT" /IC:\USERS\ZOGEN\DESKTOP\MINIGAME\COCOS2D\COCOS\2D\..\..\EXTENSIONS /IC:\USERS\ZOGEN\DESKTOP\MINIGAME\COCOS2D\COCOS\2D\..\..\COCOS /I"C:\USERS\ZOGEN\DESKTOP\MINIGAME\COCOS2D\COCOS\2D\..\..\COCOS/EDITOR-SUPPORT" /IC:\USERS\ZOGEN\DESKTOP\MINIGAME\COCOS2D\COCOS\2D\..\..\EXTERNAL\GLFW3\INCLUDE\WIN32 /I"C:\USERS\ZOGEN\DESKTOP\MINIGAME\COCOS2D\COCOS\2D\..\..\EXTERNAL\WIN32-SPECIFIC\GLES\INCLUDE\OGLES" /IC:\USERS\ZOGEN\DESKTOP\MINIGAME\COCOS2D\COCOS\2D\..\..\EXTERNAL\FREETYPE2\INCLUDE\WIN32\FREETYPE2 /IC:\USERS\ZOGEN\DESKTOP\MINIGAME\COCOS2D\COCOS\2D\..\..\EXTERNAL\FREETYPE2\INCLUDE\WIN32\ /IC:\USERS\ZOGEN\DESKTOP\MINIGAME\COCOS2D\COCOS\2D\..\..\EXTERNAL /IC:\USERS\ZOGEN\DESKTOP\MINIGAME\COCOS2D\COCOS\2D\..\..\EXTERNAL\OPENSSL\INCLUDE\WIN32 /nologo /W3 /WX- /diagnostics:column /O1 /Oi /Oy- /D WIN32 /D _WINDOWS /D _LIB /D COCOS2DXWIN32_EXPORTS /D GL_GLEXT_PROTOTYPES /D _CRT_SECURE_NO_WARNINGS /D _SCL_SECURE_NO_WARNINGS /D _VARIADIC_MAX=10 /D _UNICODE /D UNICODE /Gm- /EHsc /MD /GS /Gy /fp:precise /Zc:wchar_t /Zc:forScope /Zc:inline /Fo"RELEASE.WIN32\\" /Fd"RELEASE.WIN32\LIBSPINE.PDB" /Gd /TC /analyze- /FC C:\USERS\ZOGEN\DESKTOP\MINIGAME\COCOS2D\COCOS\EDITOR-SUPPORT\SPINE\SLOTDATA.C
^C:\USERS\ZOGEN\DESKTOP\MINIGAME\COCOS2D\COCOS\EDITOR-SUPPORT\SPINE\TRANSFORMCONSTRAINT.C
/c /IC:\USERS\ZOGEN\DESKTOP\MINIGAME\COCOS2D\COCOS\2D\..\..\ /I"C:\USERS\ZOGEN\DESKTOP\MINIGAME\COCOS2D\COCOS\2D\..\..\COCOS\EDITOR-SUPPORT" /IC:\USERS\ZOGEN\DESKTOP\MINIGAME\COCOS2D\COCOS\2D\..\..\EXTENSIONS /IC:\USERS\ZOGEN\DESKTOP\MINIGAME\COCOS2D\COCOS\2D\..\..\COCOS /I"C:\USERS\ZOGEN\DESKTOP\MINIGAME\COCOS2D\COCOS\2D\..\..\COCOS/EDITOR-SUPPORT" /IC:\USERS\ZOGEN\DESKTOP\MINIGAME\COCOS2D\COCOS\2D\..\..\EXTERNAL\GLFW3\INCLUDE\WIN32 /I"C:\USERS\ZOGEN\DESKTOP\MINIGAME\COCOS2D\COCOS\2D\..\..\EXTERNAL\WIN32-SPECIFIC\GLES\INCLUDE\OGLES" /IC:\USERS\ZOGEN\DESKTOP\MINIGAME\COCOS2D\COCOS\2D\..\..\EXTERNAL\FREETYPE2\INCLUDE\WIN32\FREETYPE2 /IC:\USERS\ZOGEN\DESKTOP\MINIGAME\COCOS2D\COCOS\2D\..\..\EXTERNAL\FREETYPE2\INCLUDE\WIN32\ /IC:\USERS\ZOGEN\DESKTOP\MINIGAME\COCOS2D\COCOS\2D\..\..\EXTERNAL /IC:\USERS\ZOGEN\DESKTOP\MINIGAME\COCOS2D\COCOS\2D\..\..\EXTERNAL\OPENSSL\INCLUDE\WIN32 /nologo /W3 /WX- /diagnostics:column /O1 /Oi /Oy- /D WIN32 /D _WINDOWS /D _LIB /D COCOS2DXWIN32_EXPORTS /D GL_GLEXT_PROTOTYPES /D _CRT_SECURE_NO_WARNINGS /D _SCL_SECURE_NO_WARNINGS /D _VARIADIC_MAX=10 /D _UNICODE /D UNICODE /Gm- /EHsc /MD /GS /Gy /fp:precise /Zc:wchar_t /Zc:forScope /Zc:inline /Fo"RELEASE.WIN32\\" /Fd"RELEASE.WIN32\LIBSPINE.PDB" /Gd /TC /analyze- /FC C:\USERS\ZOGEN\DESKTOP\MINIGAME\COCOS2D\COCOS\EDITOR-SUPPORT\SPINE\TRANSFORMCONSTRAINT.C
^C:\USERS\ZOGEN\DESKTOP\MINIGAME\COCOS2D\COCOS\EDITOR-SUPPORT\SPINE\TRANSFORMCONSTRAINTDATA.C
/c /IC:\USERS\ZOGEN\DESKTOP\MINIGAME\COCOS2D\COCOS\2D\..\..\ /I"C:\USERS\ZOGEN\DESKTOP\MINIGAME\COCOS2D\COCOS\2D\..\..\COCOS\EDITOR-SUPPORT" /IC:\USERS\ZOGEN\DESKTOP\MINIGAME\COCOS2D\COCOS\2D\..\..\EXTENSIONS /IC:\USERS\ZOGEN\DESKTOP\MINIGAME\COCOS2D\COCOS\2D\..\..\COCOS /I"C:\USERS\ZOGEN\DESKTOP\MINIGAME\COCOS2D\COCOS\2D\..\..\COCOS/EDITOR-SUPPORT" /IC:\USERS\ZOGEN\DESKTOP\MINIGAME\COCOS2D\COCOS\2D\..\..\EXTERNAL\GLFW3\INCLUDE\WIN32 /I"C:\USERS\ZOGEN\DESKTOP\MINIGAME\COCOS2D\COCOS\2D\..\..\EXTERNAL\WIN32-SPECIFIC\GLES\INCLUDE\OGLES" /IC:\USERS\ZOGEN\DESKTOP\MINIGAME\COCOS2D\COCOS\2D\..\..\EXTERNAL\FREETYPE2\INCLUDE\WIN32\FREETYPE2 /IC:\USERS\ZOGEN\DESKTOP\MINIGAME\COCOS2D\COCOS\2D\..\..\EXTERNAL\FREETYPE2\INCLUDE\WIN32\ /IC:\USERS\ZOGEN\DESKTOP\MINIGAME\COCOS2D\COCOS\2D\..\..\EXTERNAL /IC:\USERS\ZOGEN\DESKTOP\MINIGAME\COCOS2D\COCOS\2D\..\..\EXTERNAL\OPENSSL\INCLUDE\WIN32 /nologo /W3 /WX- /diagnostics:column /O1 /Oi /Oy- /D WIN32 /D _WINDOWS /D _LIB /D COCOS2DXWIN32_EXPORTS /D GL_GLEXT_PROTOTYPES /D _CRT_SECURE_NO_WARNINGS /D _SCL_SECURE_NO_WARNINGS /D _VARIADIC_MAX=10 /D _UNICODE /D UNICODE /Gm- /EHsc /MD /GS /Gy /fp:precise /Zc:wchar_t /Zc:forScope /Zc:inline /Fo"RELEASE.WIN32\\" /Fd"RELEASE.WIN32\LIBSPINE.PDB" /Gd /TC /analyze- /FC C:\USERS\ZOGEN\DESKTOP\MINIGAME\COCOS2D\COCOS\EDITOR-SUPPORT\SPINE\TRANSFORMCONSTRAINTDATA.C
^C:\USERS\ZOGEN\DESKTOP\MINIGAME\COCOS2D\COCOS\EDITOR-SUPPORT\SPINE\TRIANGULATOR.C
/c /IC:\USERS\ZOGEN\DESKTOP\MINIGAME\COCOS2D\COCOS\2D\..\..\ /I"C:\USERS\ZOGEN\DESKTOP\MINIGAME\COCOS2D\COCOS\2D\..\..\COCOS\EDITOR-SUPPORT" /IC:\USERS\ZOGEN\DESKTOP\MINIGAME\COCOS2D\COCOS\2D\..\..\EXTENSIONS /IC:\USERS\ZOGEN\DESKTOP\MINIGAME\COCOS2D\COCOS\2D\..\..\COCOS /I"C:\USERS\ZOGEN\DESKTOP\MINIGAME\COCOS2D\COCOS\2D\..\..\COCOS/EDITOR-SUPPORT" /IC:\USERS\ZOGEN\DESKTOP\MINIGAME\COCOS2D\COCOS\2D\..\..\EXTERNAL\GLFW3\INCLUDE\WIN32 /I"C:\USERS\ZOGEN\DESKTOP\MINIGAME\COCOS2D\COCOS\2D\..\..\EXTERNAL\WIN32-SPECIFIC\GLES\INCLUDE\OGLES" /IC:\USERS\ZOGEN\DESKTOP\MINIGAME\COCOS2D\COCOS\2D\..\..\EXTERNAL\FREETYPE2\INCLUDE\WIN32\FREETYPE2 /IC:\USERS\ZOGEN\DESKTOP\MINIGAME\COCOS2D\COCOS\2D\..\..\EXTERNAL\FREETYPE2\INCLUDE\WIN32\ /IC:\USERS\ZOGEN\DESKTOP\MINIGAME\COCOS2D\COCOS\2D\..\..\EXTERNAL /IC:\USERS\ZOGEN\DESKTOP\MINIGAME\COCOS2D\COCOS\2D\..\..\EXTERNAL\OPENSSL\INCLUDE\WIN32 /nologo /W3 /WX- /diagnostics:column /O1 /Oi /Oy- /D WIN32 /D _WINDOWS /D _LIB /D COCOS2DXWIN32_EXPORTS /D GL_GLEXT_PROTOTYPES /D _CRT_SECURE_NO_WARNINGS /D _SCL_SECURE_NO_WARNINGS /D _VARIADIC_MAX=10 /D _UNICODE /D UNICODE /Gm- /EHsc /MD /GS /Gy /fp:precise /Zc:wchar_t /Zc:forScope /Zc:inline /Fo"RELEASE.WIN32\\" /Fd"RELEASE.WIN32\LIBSPINE.PDB" /Gd /TC /analyze- /FC C:\USERS\ZOGEN\DESKTOP\MINIGAME\COCOS2D\COCOS\EDITOR-SUPPORT\SPINE\TRIANGULATOR.C
^C:\USERS\ZOGEN\DESKTOP\MINIGAME\COCOS2D\COCOS\EDITOR-SUPPORT\SPINE\VERTEXATTACHMENT.C
/c /IC:\USERS\ZOGEN\DESKTOP\MINIGAME\COCOS2D\COCOS\2D\..\..\ /I"C:\USERS\ZOGEN\DESKTOP\MINIGAME\COCOS2D\COCOS\2D\..\..\COCOS\EDITOR-SUPPORT" /IC:\USERS\ZOGEN\DESKTOP\MINIGAME\COCOS2D\COCOS\2D\..\..\EXTENSIONS /IC:\USERS\ZOGEN\DESKTOP\MINIGAME\COCOS2D\COCOS\2D\..\..\COCOS /I"C:\USERS\ZOGEN\DESKTOP\MINIGAME\COCOS2D\COCOS\2D\..\..\COCOS/EDITOR-SUPPORT" /IC:\USERS\ZOGEN\DESKTOP\MINIGAME\COCOS2D\COCOS\2D\..\..\EXTERNAL\GLFW3\INCLUDE\WIN32 /I"C:\USERS\ZOGEN\DESKTOP\MINIGAME\COCOS2D\COCOS\2D\..\..\EXTERNAL\WIN32-SPECIFIC\GLES\INCLUDE\OGLES" /IC:\USERS\ZOGEN\DESKTOP\MINIGAME\COCOS2D\COCOS\2D\..\..\EXTERNAL\FREETYPE2\INCLUDE\WIN32\FREETYPE2 /IC:\USERS\ZOGEN\DESKTOP\MINIGAME\COCOS2D\COCOS\2D\..\..\EXTERNAL\FREETYPE2\INCLUDE\WIN32\ /IC:\USERS\ZOGEN\DESKTOP\MINIGAME\COCOS2D\COCOS\2D\..\..\EXTERNAL /IC:\USERS\ZOGEN\DESKTOP\MINIGAME\COCOS2D\COCOS\2D\..\..\EXTERNAL\OPENSSL\INCLUDE\WIN32 /nologo /W3 /WX- /diagnostics:column /O1 /Oi /Oy- /D WIN32 /D _WINDOWS /D _LIB /D COCOS2DXWIN32_EXPORTS /D GL_GLEXT_PROTOTYPES /D _CRT_SECURE_NO_WARNINGS /D _SCL_SECURE_NO_WARNINGS /D _VARIADIC_MAX=10 /D _UNICODE /D UNICODE /Gm- /EHsc /MD /GS /Gy /fp:precise /Zc:wchar_t /Zc:forScope /Zc:inline /Fo"RELEASE.WIN32\\" /Fd"RELEASE.WIN32\LIBSPINE.PDB" /Gd /TC /analyze- /FC C:\USERS\ZOGEN\DESKTOP\MINIGAME\COCOS2D\COCOS\EDITOR-SUPPORT\SPINE\VERTEXATTACHMENT.C
^C:\USERS\ZOGEN\DESKTOP\MINIGAME\COCOS2D\COCOS\EDITOR-SUPPORT\SPINE\VERTEXEFFECT.C
/c /IC:\USERS\ZOGEN\DESKTOP\MINIGAME\COCOS2D\COCOS\2D\..\..\ /I"C:\USERS\ZOGEN\DESKTOP\MINIGAME\COCOS2D\COCOS\2D\..\..\COCOS\EDITOR-SUPPORT" /IC:\USERS\ZOGEN\DESKTOP\MINIGAME\COCOS2D\COCOS\2D\..\..\EXTENSIONS /IC:\USERS\ZOGEN\DESKTOP\MINIGAME\COCOS2D\COCOS\2D\..\..\COCOS /I"C:\USERS\ZOGEN\DESKTOP\MINIGAME\COCOS2D\COCOS\2D\..\..\COCOS/EDITOR-SUPPORT" /IC:\USERS\ZOGEN\DESKTOP\MINIGAME\COCOS2D\COCOS\2D\..\..\EXTERNAL\GLFW3\INCLUDE\WIN32 /I"C:\USERS\ZOGEN\DESKTOP\MINIGAME\COCOS2D\COCOS\2D\..\..\EXTERNAL\WIN32-SPECIFIC\GLES\INCLUDE\OGLES" /IC:\USERS\ZOGEN\DESKTOP\MINIGAME\COCOS2D\COCOS\2D\..\..\EXTERNAL\FREETYPE2\INCLUDE\WIN32\FREETYPE2 /IC:\USERS\ZOGEN\DESKTOP\MINIGAME\COCOS2D\COCOS\2D\..\..\EXTERNAL\FREETYPE2\INCLUDE\WIN32\ /IC:\USERS\ZOGEN\DESKTOP\MINIGAME\COCOS2D\COCOS\2D\..\..\EXTERNAL /IC:\USERS\ZOGEN\DESKTOP\MINIGAME\COCOS2D\COCOS\2D\..\..\EXTERNAL\OPENSSL\INCLUDE\WIN32 /nologo /W3 /WX- /diagnostics:column /O1 /Oi /Oy- /D WIN32 /D _WINDOWS /D _LIB /D COCOS2DXWIN32_EXPORTS /D GL_GLEXT_PROTOTYPES /D _CRT_SECURE_NO_WARNINGS /D _SCL_SECURE_NO_WARNINGS /D _VARIADIC_MAX=10 /D _UNICODE /D UNICODE /Gm- /EHsc /MD /GS /Gy /fp:precise /Zc:wchar_t /Zc:forScope /Zc:inline /Fo"RELEASE.WIN32\\" /Fd"RELEASE.WIN32\LIBSPINE.PDB" /Gd /TC /analyze- /FC C:\USERS\ZOGEN\DESKTOP\MINIGAME\COCOS2D\COCOS\EDITOR-SUPPORT\SPINE\VERTEXEFFECT.C
^C:\USERS\ZOGEN\DESKTOP\MINIGAME\COCOS2D\COCOS\EDITOR-SUPPORT\SPINE\ATTACHMENTVERTICES.CPP
/c /IC:\USERS\ZOGEN\DESKTOP\MINIGAME\COCOS2D\COCOS\2D\..\..\ /I"C:\USERS\ZOGEN\DESKTOP\MINIGAME\COCOS2D\COCOS\2D\..\..\COCOS\EDITOR-SUPPORT" /IC:\USERS\ZOGEN\DESKTOP\MINIGAME\COCOS2D\COCOS\2D\..\..\EXTENSIONS /IC:\USERS\ZOGEN\DESKTOP\MINIGAME\COCOS2D\COCOS\2D\..\..\COCOS /I"C:\USERS\ZOGEN\DESKTOP\MINIGAME\COCOS2D\COCOS\2D\..\..\COCOS/EDITOR-SUPPORT" /IC:\USERS\ZOGEN\DESKTOP\MINIGAME\COCOS2D\COCOS\2D\..\..\EXTERNAL\GLFW3\INCLUDE\WIN32 /I"C:\USERS\ZOGEN\DESKTOP\MINIGAME\COCOS2D\COCOS\2D\..\..\EXTERNAL\WIN32-SPECIFIC\GLES\INCLUDE\OGLES" /IC:\USERS\ZOGEN\DESKTOP\MINIGAME\COCOS2D\COCOS\2D\..\..\EXTERNAL\FREETYPE2\INCLUDE\WIN32\FREETYPE2 /IC:\USERS\ZOGEN\DESKTOP\MINIGAME\COCOS2D\COCOS\2D\..\..\EXTERNAL\FREETYPE2\INCLUDE\WIN32\ /IC:\USERS\ZOGEN\DESKTOP\MINIGAME\COCOS2D\COCOS\2D\..\..\EXTERNAL /IC:\USERS\ZOGEN\DESKTOP\MINIGAME\COCOS2D\COCOS\2D\..\..\EXTERNAL\OPENSSL\INCLUDE\WIN32 /nologo /W3 /WX- /diagnostics:column /O1 /Oi /Oy- /D WIN32 /D _WINDOWS /D _LIB /D COCOS2DXWIN32_EXPORTS /D GL_GLEXT_PROTOTYPES /D _CRT_SECURE_NO_WARNINGS /D _SCL_SECURE_NO_WARNINGS /D _VARIADIC_MAX=10 /D _UNICODE /D UNICODE /Gm- /EHsc /MD /GS /Gy /fp:precise /Zc:wchar_t /Zc:forScope /Zc:inline /Fo"RELEASE.WIN32\\" /Fd"RELEASE.WIN32\LIBSPINE.PDB" /Gd /TP /analyze- /FC C:\USERS\ZOGEN\DESKTOP\MINIGAME\COCOS2D\COCOS\EDITOR-SUPPORT\SPINE\ATTACHMENTVERTICES.CPP
^C:\USERS\ZOGEN\DESKTOP\MINIGAME\COCOS2D\COCOS\EDITOR-SUPPORT\SPINE\COCOS2DATTACHMENTLOADER.CPP
/c /IC:\USERS\ZOGEN\DESKTOP\MINIGAME\COCOS2D\COCOS\2D\..\..\ /I"C:\USERS\ZOGEN\DESKTOP\MINIGAME\COCOS2D\COCOS\2D\..\..\COCOS\EDITOR-SUPPORT" /IC:\USERS\ZOGEN\DESKTOP\MINIGAME\COCOS2D\COCOS\2D\..\..\EXTENSIONS /IC:\USERS\ZOGEN\DESKTOP\MINIGAME\COCOS2D\COCOS\2D\..\..\COCOS /I"C:\USERS\ZOGEN\DESKTOP\MINIGAME\COCOS2D\COCOS\2D\..\..\COCOS/EDITOR-SUPPORT" /IC:\USERS\ZOGEN\DESKTOP\MINIGAME\COCOS2D\COCOS\2D\..\..\EXTERNAL\GLFW3\INCLUDE\WIN32 /I"C:\USERS\ZOGEN\DESKTOP\MINIGAME\COCOS2D\COCOS\2D\..\..\EXTERNAL\WIN32-SPECIFIC\GLES\INCLUDE\OGLES" /IC:\USERS\ZOGEN\DESKTOP\MINIGAME\COCOS2D\COCOS\2D\..\..\EXTERNAL\FREETYPE2\INCLUDE\WIN32\FREETYPE2 /IC:\USERS\ZOGEN\DESKTOP\MINIGAME\COCOS2D\COCOS\2D\..\..\EXTERNAL\FREETYPE2\INCLUDE\WIN32\ /IC:\USERS\ZOGEN\DESKTOP\MINIGAME\COCOS2D\COCOS\2D\..\..\EXTERNAL /IC:\USERS\ZOGEN\DESKTOP\MINIGAME\COCOS2D\COCOS\2D\..\..\EXTERNAL\OPENSSL\INCLUDE\WIN32 /nologo /W3 /WX- /diagnostics:column /O1 /Oi /Oy- /D WIN32 /D _WINDOWS /D _LIB /D COCOS2DXWIN32_EXPORTS /D GL_GLEXT_PROTOTYPES /D _CRT_SECURE_NO_WARNINGS /D _SCL_SECURE_NO_WARNINGS /D _VARIADIC_MAX=10 /D _UNICODE /D UNICODE /Gm- /EHsc /MD /GS /Gy /fp:precise /Zc:wchar_t /Zc:forScope /Zc:inline /Fo"RELEASE.WIN32\\" /Fd"RELEASE.WIN32\LIBSPINE.PDB" /Gd /TP /analyze- /FC C:\USERS\ZOGEN\DESKTOP\MINIGAME\COCOS2D\COCOS\EDITOR-SUPPORT\SPINE\COCOS2DATTACHMENTLOADER.CPP
^C:\USERS\ZOGEN\DESKTOP\MINIGAME\COCOS2D\COCOS\EDITOR-SUPPORT\SPINE\SKELETONANIMATION.CPP
/c /IC:\USERS\ZOGEN\DESKTOP\MINIGAME\COCOS2D\COCOS\2D\..\..\ /I"C:\USERS\ZOGEN\DESKTOP\MINIGAME\COCOS2D\COCOS\2D\..\..\COCOS\EDITOR-SUPPORT" /IC:\USERS\ZOGEN\DESKTOP\MINIGAME\COCOS2D\COCOS\2D\..\..\EXTENSIONS /IC:\USERS\ZOGEN\DESKTOP\MINIGAME\COCOS2D\COCOS\2D\..\..\COCOS /I"C:\USERS\ZOGEN\DESKTOP\MINIGAME\COCOS2D\COCOS\2D\..\..\COCOS/EDITOR-SUPPORT" /IC:\USERS\ZOGEN\DESKTOP\MINIGAME\COCOS2D\COCOS\2D\..\..\EXTERNAL\GLFW3\INCLUDE\WIN32 /I"C:\USERS\ZOGEN\DESKTOP\MINIGAME\COCOS2D\COCOS\2D\..\..\EXTERNAL\WIN32-SPECIFIC\GLES\INCLUDE\OGLES" /IC:\USERS\ZOGEN\DESKTOP\MINIGAME\COCOS2D\COCOS\2D\..\..\EXTERNAL\FREETYPE2\INCLUDE\WIN32\FREETYPE2 /IC:\USERS\ZOGEN\DESKTOP\MINIGAME\COCOS2D\COCOS\2D\..\..\EXTERNAL\FREETYPE2\INCLUDE\WIN32\ /IC:\USERS\ZOGEN\DESKTOP\MINIGAME\COCOS2D\COCOS\2D\..\..\EXTERNAL /IC:\USERS\ZOGEN\DESKTOP\MINIGAME\COCOS2D\COCOS\2D\..\..\EXTERNAL\OPENSSL\INCLUDE\WIN32 /nologo /W3 /WX- /diagnostics:column /O1 /Oi /Oy- /D WIN32 /D _WINDOWS /D _LIB /D COCOS2DXWIN32_EXPORTS /D GL_GLEXT_PROTOTYPES /D _CRT_SECURE_NO_WARNINGS /D _SCL_SECURE_NO_WARNINGS /D _VARIADIC_MAX=10 /D _UNICODE /D UNICODE /Gm- /EHsc /MD /GS /Gy /fp:precise /Zc:wchar_t /Zc:forScope /Zc:inline /Fo"RELEASE.WIN32\\" /Fd"RELEASE.WIN32\LIBSPINE.PDB" /Gd /TP /analyze- /FC C:\USERS\ZOGEN\DESKTOP\MINIGAME\COCOS2D\COCOS\EDITOR-SUPPORT\SPINE\SKELETONANIMATION.CPP
^C:\USERS\ZOGEN\DESKTOP\MINIGAME\COCOS2D\COCOS\EDITOR-SUPPORT\SPINE\SKELETONBATCH.CPP
/c /IC:\USERS\ZOGEN\DESKTOP\MINIGAME\COCOS2D\COCOS\2D\..\..\ /I"C:\USERS\ZOGEN\DESKTOP\MINIGAME\COCOS2D\COCOS\2D\..\..\COCOS\EDITOR-SUPPORT" /IC:\USERS\ZOGEN\DESKTOP\MINIGAME\COCOS2D\COCOS\2D\..\..\EXTENSIONS /IC:\USERS\ZOGEN\DESKTOP\MINIGAME\COCOS2D\COCOS\2D\..\..\COCOS /I"C:\USERS\ZOGEN\DESKTOP\MINIGAME\COCOS2D\COCOS\2D\..\..\COCOS/EDITOR-SUPPORT" /IC:\USERS\ZOGEN\DESKTOP\MINIGAME\COCOS2D\COCOS\2D\..\..\EXTERNAL\GLFW3\INCLUDE\WIN32 /I"C:\USERS\ZOGEN\DESKTOP\MINIGAME\COCOS2D\COCOS\2D\..\..\EXTERNAL\WIN32-SPECIFIC\GLES\INCLUDE\OGLES" /IC:\USERS\ZOGEN\DESKTOP\MINIGAME\COCOS2D\COCOS\2D\..\..\EXTERNAL\FREETYPE2\INCLUDE\WIN32\FREETYPE2 /IC:\USERS\ZOGEN\DESKTOP\MINIGAME\COCOS2D\COCOS\2D\..\..\EXTERNAL\FREETYPE2\INCLUDE\WIN32\ /IC:\USERS\ZOGEN\DESKTOP\MINIGAME\COCOS2D\COCOS\2D\..\..\EXTERNAL /IC:\USERS\ZOGEN\DESKTOP\MINIGAME\COCOS2D\COCOS\2D\..\..\EXTERNAL\OPENSSL\INCLUDE\WIN32 /nologo /W3 /WX- /diagnostics:column /O1 /Oi /Oy- /D WIN32 /D _WINDOWS /D _LIB /D COCOS2DXWIN32_EXPORTS /D GL_GLEXT_PROTOTYPES /D _CRT_SECURE_NO_WARNINGS /D _SCL_SECURE_NO_WARNINGS /D _VARIADIC_MAX=10 /D _UNICODE /D UNICODE /Gm- /EHsc /MD /GS /Gy /fp:precise /Zc:wchar_t /Zc:forScope /Zc:inline /Fo"RELEASE.WIN32\\" /Fd"RELEASE.WIN32\LIBSPINE.PDB" /Gd /TP /analyze- /FC C:\USERS\ZOGEN\DESKTOP\MINIGAME\COCOS2D\COCOS\EDITOR-SUPPORT\SPINE\SKELETONBATCH.CPP
^C:\USERS\ZOGEN\DESKTOP\MINIGAME\COCOS2D\COCOS\EDITOR-SUPPORT\SPINE\SKELETONRENDERER.CPP
/c /IC:\USERS\ZOGEN\DESKTOP\MINIGAME\COCOS2D\COCOS\2D\..\..\ /I"C:\USERS\ZOGEN\DESKTOP\MINIGAME\COCOS2D\COCOS\2D\..\..\COCOS\EDITOR-SUPPORT" /IC:\USERS\ZOGEN\DESKTOP\MINIGAME\COCOS2D\COCOS\2D\..\..\EXTENSIONS /IC:\USERS\ZOGEN\DESKTOP\MINIGAME\COCOS2D\COCOS\2D\..\..\COCOS /I"C:\USERS\ZOGEN\DESKTOP\MINIGAME\COCOS2D\COCOS\2D\..\..\COCOS/EDITOR-SUPPORT" /IC:\USERS\ZOGEN\DESKTOP\MINIGAME\COCOS2D\COCOS\2D\..\..\EXTERNAL\GLFW3\INCLUDE\WIN32 /I"C:\USERS\ZOGEN\DESKTOP\MINIGAME\COCOS2D\COCOS\2D\..\..\EXTERNAL\WIN32-SPECIFIC\GLES\INCLUDE\OGLES" /IC:\USERS\ZOGEN\DESKTOP\MINIGAME\COCOS2D\COCOS\2D\..\..\EXTERNAL\FREETYPE2\INCLUDE\WIN32\FREETYPE2 /IC:\USERS\ZOGEN\DESKTOP\MINIGAME\COCOS2D\COCOS\2D\..\..\EXTERNAL\FREETYPE2\INCLUDE\WIN32\ /IC:\USERS\ZOGEN\DESKTOP\MINIGAME\COCOS2D\COCOS\2D\..\..\EXTERNAL /IC:\USERS\ZOGEN\DESKTOP\MINIGAME\COCOS2D\COCOS\2D\..\..\EXTERNAL\OPENSSL\INCLUDE\WIN32 /nologo /W3 /WX- /diagnostics:column /O1 /Oi /Oy- /D WIN32 /D _WINDOWS /D _LIB /D COCOS2DXWIN32_EXPORTS /D GL_GLEXT_PROTOTYPES /D _CRT_SECURE_NO_WARNINGS /D _SCL_SECURE_NO_WARNINGS /D _VARIADIC_MAX=10 /D _UNICODE /D UNICODE /Gm- /EHsc /MD /GS /Gy /fp:precise /Zc:wchar_t /Zc:forScope /Zc:inline /Fo"RELEASE.WIN32\\" /Fd"RELEASE.WIN32\LIBSPINE.PDB" /Gd /TP /analyze- /FC C:\USERS\ZOGEN\DESKTOP\MINIGAME\COCOS2D\COCOS\EDITOR-SUPPORT\SPINE\SKELETONRENDERER.CPP
^C:\USERS\ZOGEN\DESKTOP\MINIGAME\COCOS2D\COCOS\EDITOR-SUPPORT\SPINE\SKELETONTWOCOLORBATCH.CPP
/c /IC:\USERS\ZOGEN\DESKTOP\MINIGAME\COCOS2D\COCOS\2D\..\..\ /I"C:\USERS\ZOGEN\DESKTOP\MINIGAME\COCOS2D\COCOS\2D\..\..\COCOS\EDITOR-SUPPORT" /IC:\USERS\ZOGEN\DESKTOP\MINIGAME\COCOS2D\COCOS\2D\..\..\EXTENSIONS /IC:\USERS\ZOGEN\DESKTOP\MINIGAME\COCOS2D\COCOS\2D\..\..\COCOS /I"C:\USERS\ZOGEN\DESKTOP\MINIGAME\COCOS2D\COCOS\2D\..\..\COCOS/EDITOR-SUPPORT" /IC:\USERS\ZOGEN\DESKTOP\MINIGAME\COCOS2D\COCOS\2D\..\..\EXTERNAL\GLFW3\INCLUDE\WIN32 /I"C:\USERS\ZOGEN\DESKTOP\MINIGAME\COCOS2D\COCOS\2D\..\..\EXTERNAL\WIN32-SPECIFIC\GLES\INCLUDE\OGLES" /IC:\USERS\ZOGEN\DESKTOP\MINIGAME\COCOS2D\COCOS\2D\..\..\EXTERNAL\FREETYPE2\INCLUDE\WIN32\FREETYPE2 /IC:\USERS\ZOGEN\DESKTOP\MINIGAME\COCOS2D\COCOS\2D\..\..\EXTERNAL\FREETYPE2\INCLUDE\WIN32\ /IC:\USERS\ZOGEN\DESKTOP\MINIGAME\COCOS2D\COCOS\2D\..\..\EXTERNAL /IC:\USERS\ZOGEN\DESKTOP\MINIGAME\COCOS2D\COCOS\2D\..\..\EXTERNAL\OPENSSL\INCLUDE\WIN32 /nologo /W3 /WX- /diagnostics:column /O1 /Oi /Oy- /D WIN32 /D _WINDOWS /D _LIB /D COCOS2DXWIN32_EXPORTS /D GL_GLEXT_PROTOTYPES /D _CRT_SECURE_NO_WARNINGS /D _SCL_SECURE_NO_WARNINGS /D _VARIADIC_MAX=10 /D _UNICODE /D UNICODE /Gm- /EHsc /MD /GS /Gy /fp:precise /Zc:wchar_t /Zc:forScope /Zc:inline /Fo"RELEASE.WIN32\\" /Fd"RELEASE.WIN32\LIBSPINE.PDB" /Gd /TP /analyze- /FC C:\USERS\ZOGEN\DESKTOP\MINIGAME\COCOS2D\COCOS\EDITOR-SUPPORT\SPINE\SKELETONTWOCOLORBATCH.CPP
^C:\USERS\ZOGEN\DESKTOP\MINIGAME\COCOS2D\COCOS\EDITOR-SUPPORT\SPINE\SPINE-COCOS2DX.CPP
/c /IC:\USERS\ZOGEN\DESKTOP\MINIGAME\COCOS2D\COCOS\2D\..\..\ /I"C:\USERS\ZOGEN\DESKTOP\MINIGAME\COCOS2D\COCOS\2D\..\..\COCOS\EDITOR-SUPPORT" /IC:\USERS\ZOGEN\DESKTOP\MINIGAME\COCOS2D\COCOS\2D\..\..\EXTENSIONS /IC:\USERS\ZOGEN\DESKTOP\MINIGAME\COCOS2D\COCOS\2D\..\..\COCOS /I"C:\USERS\ZOGEN\DESKTOP\MINIGAME\COCOS2D\COCOS\2D\..\..\COCOS/EDITOR-SUPPORT" /IC:\USERS\ZOGEN\DESKTOP\MINIGAME\COCOS2D\COCOS\2D\..\..\EXTERNAL\GLFW3\INCLUDE\WIN32 /I"C:\USERS\ZOGEN\DESKTOP\MINIGAME\COCOS2D\COCOS\2D\..\..\EXTERNAL\WIN32-SPECIFIC\GLES\INCLUDE\OGLES" /IC:\USERS\ZOGEN\DESKTOP\MINIGAME\COCOS2D\COCOS\2D\..\..\EXTERNAL\FREETYPE2\INCLUDE\WIN32\FREETYPE2 /IC:\USERS\ZOGEN\DESKTOP\MINIGAME\COCOS2D\COCOS\2D\..\..\EXTERNAL\FREETYPE2\INCLUDE\WIN32\ /IC:\USERS\ZOGEN\DESKTOP\MINIGAME\COCOS2D\COCOS\2D\..\..\EXTERNAL /IC:\USERS\ZOGEN\DESKTOP\MINIGAME\COCOS2D\COCOS\2D\..\..\EXTERNAL\OPENSSL\INCLUDE\WIN32 /nologo /W3 /WX- /diagnostics:column /O1 /Oi /Oy- /D WIN32 /D _WINDOWS /D _LIB /D COCOS2DXWIN32_EXPORTS /D GL_GLEXT_PROTOTYPES /D _CRT_SECURE_NO_WARNINGS /D _SCL_SECURE_NO_WARNINGS /D _VARIADIC_MAX=10 /D _UNICODE /D UNICODE /Gm- /EHsc /MD /GS /Gy /fp:precise /Zc:wchar_t /Zc:forScope /Zc:inline /Fo"RELEASE.WIN32\\" /Fd"RELEASE.WIN32\LIBSPINE.PDB" /Gd /TP /analyze- /FC C:\USERS\ZOGEN\DESKTOP\MINIGAME\COCOS2D\COCOS\EDITOR-SUPPORT\SPINE\SPINE-COCOS2DX.CPP
