^C:\USERS\ZOGEN\DESKTOP\MINIGAME\CLASSES\APPDELEGATE.CPP
/c /IC:\USERS\ZOGEN\DESKTOP\MINIGAME\COCOS2D\COCOS\2D\..\..\ /IC:\USERS\ZOGEN\DESKTOP\MINIGAME\COCOS2D\COCOS\2D\..\..\EXTERNAL /IC:\USERS\ZOGEN\DESKTOP\MINIGAME\COCOS2D\COCOS\2D\..\..\COCOS\AUDIO\INCLUDE /IC:\USERS\ZOGEN\DESKTOP\MINIGAME\COCOS2D\COCOS\2D\..\..\EXTERNAL\CHIPMUNK\INCLUDE\CHIPMUNK /IC:\USERS\ZOGEN\DESKTOP\MINIGAME\COCOS2D\COCOS\2D\..\..\EXTENSIONS /I..\CLASSES /I.. /IC:\USERS\ZOGEN\DESKTOP\MINIGAME\COCOS2D\COCOS\2D\..\..\COCOS /I"C:\USERS\ZOGEN\DESKTOP\MINIGAME\COCOS2D\COCOS\2D\..\..\COCOS/EDITOR-SUPPORT" /IC:\USERS\ZOGEN\DESKTOP\MINIGAME\COCOS2D\COCOS\2D\..\..\EXTERNAL\GLFW3\INCLUDE\WIN32 /I"C:\USERS\ZOGEN\DESKTOP\MINIGAME\COCOS2D\COCOS\2D\..\..\EXTERNAL\WIN32-SPECIFIC\GLES\INCLUDE\OGLES" /IC:\USERS\ZOGEN\DESKTOP\MINIGAME\COCOS2D\COCOS\2D\..\..\EXTERNAL\FREETYPE2\INCLUDE\WIN32\FREETYPE2 /IC:\USERS\ZOGEN\DESKTOP\MINIGAME\COCOS2D\COCOS\2D\..\..\EXTERNAL\FREETYPE2\INCLUDE\WIN32\ /IC:\USERS\ZOGEN\DESKTOP\MINIGAME\COCOS2D\COCOS\2D\..\..\EXTERNAL /IC:\USERS\ZOGEN\DESKTOP\MINIGAME\COCOS2D\COCOS\2D\..\..\EXTERNAL\OPENSSL\INCLUDE\WIN32 /Zi /nologo /W3 /WX- /diagnostics:column /O2 /Oi /Oy- /GL /D WIN32 /D NDEBUG /D _WINDOWS /D _USE_MATH_DEFINES /D GL_GLEXT_PROTOTYPES /D CC_ENABLE_CHIPMUNK_INTEGRATION=1 /D _CRT_SECURE_NO_WARNINGS /D _SCL_SECURE_NO_WARNINGS /D _VARIADIC_MAX=10 /D _UNICODE /D UNICODE /Gm- /EHsc /MD /GS /Gy /fp:precise /Zc:wchar_t /Zc:forScope /Zc:inline /Fo"RELEASE.WIN32\\" /Fd"RELEASE.WIN32\VC142.PDB" /Gd /TP /wd4267 /wd4251 /wd4244 /analyze- /FC C:\USERS\ZOGEN\DESKTOP\MINIGAME\CLASSES\APPDELEGATE.CPP
^C:\USERS\ZOGEN\DESKTOP\MINIGAME\PROJ.WIN32\MAIN.CPP
/c /IC:\USERS\ZOGEN\DESKTOP\MINIGAME\COCOS2D\COCOS\2D\..\..\ /IC:\USERS\ZOGEN\DESKTOP\MINIGAME\COCOS2D\COCOS\2D\..\..\EXTERNAL /IC:\USERS\ZOGEN\DESKTOP\MINIGAME\COCOS2D\COCOS\2D\..\..\COCOS\AUDIO\INCLUDE /IC:\USERS\ZOGEN\DESKTOP\MINIGAME\COCOS2D\COCOS\2D\..\..\EXTERNAL\CHIPMUNK\INCLUDE\CHIPMUNK /IC:\USERS\ZOGEN\DESKTOP\MINIGAME\COCOS2D\COCOS\2D\..\..\EXTENSIONS /I..\CLASSES /I.. /IC:\USERS\ZOGEN\DESKTOP\MINIGAME\COCOS2D\COCOS\2D\..\..\COCOS /I"C:\USERS\ZOGEN\DESKTOP\MINIGAME\COCOS2D\COCOS\2D\..\..\COCOS/EDITOR-SUPPORT" /IC:\USERS\ZOGEN\DESKTOP\MINIGAME\COCOS2D\COCOS\2D\..\..\EXTERNAL\GLFW3\INCLUDE\WIN32 /I"C:\USERS\ZOGEN\DESKTOP\MINIGAME\COCOS2D\COCOS\2D\..\..\EXTERNAL\WIN32-SPECIFIC\GLES\INCLUDE\OGLES" /IC:\USERS\ZOGEN\DESKTOP\MINIGAME\COCOS2D\COCOS\2D\..\..\EXTERNAL\FREETYPE2\INCLUDE\WIN32\FREETYPE2 /IC:\USERS\ZOGEN\DESKTOP\MINIGAME\COCOS2D\COCOS\2D\..\..\EXTERNAL\FREETYPE2\INCLUDE\WIN32\ /IC:\USERS\ZOGEN\DESKTOP\MINIGAME\COCOS2D\COCOS\2D\..\..\EXTERNAL /IC:\USERS\ZOGEN\DESKTOP\MINIGAME\COCOS2D\COCOS\2D\..\..\EXTERNAL\OPENSSL\INCLUDE\WIN32 /Zi /nologo /W3 /WX- /diagnostics:column /O2 /Oi /Oy- /GL /D WIN32 /D NDEBUG /D _WINDOWS /D _USE_MATH_DEFINES /D GL_GLEXT_PROTOTYPES /D CC_ENABLE_CHIPMUNK_INTEGRATION=1 /D _CRT_SECURE_NO_WARNINGS /D _SCL_SECURE_NO_WARNINGS /D _VARIADIC_MAX=10 /D _UNICODE /D UNICODE /Gm- /EHsc /MD /GS /Gy /fp:precise /Zc:wchar_t /Zc:forScope /Zc:inline /Fo"RELEASE.WIN32\\" /Fd"RELEASE.WIN32\VC142.PDB" /Gd /TP /wd4267 /wd4251 /wd4244 /analyze- /FC C:\USERS\ZOGEN\DESKTOP\MINIGAME\PROJ.WIN32\MAIN.CPP
^C:\USERS\ZOGEN\DESKTOP\MINIGAME\PROJ.WIN32\GAMESCENE.CPP
/c /IC:\USERS\ZOGEN\DESKTOP\MINIGAME\COCOS2D\COCOS\2D\..\..\ /IC:\USERS\ZOGEN\DESKTOP\MINIGAME\COCOS2D\COCOS\2D\..\..\EXTERNAL /IC:\USERS\ZOGEN\DESKTOP\MINIGAME\COCOS2D\COCOS\2D\..\..\COCOS\AUDIO\INCLUDE /IC:\USERS\ZOGEN\DESKTOP\MINIGAME\COCOS2D\COCOS\2D\..\..\EXTERNAL\CHIPMUNK\INCLUDE\CHIPMUNK /IC:\USERS\ZOGEN\DESKTOP\MINIGAME\COCOS2D\COCOS\2D\..\..\EXTENSIONS /I..\CLASSES /I.. /IC:\USERS\ZOGEN\DESKTOP\MINIGAME\COCOS2D\COCOS\2D\..\..\COCOS /I"C:\USERS\ZOGEN\DESKTOP\MINIGAME\COCOS2D\COCOS\2D\..\..\COCOS/EDITOR-SUPPORT" /IC:\USERS\ZOGEN\DESKTOP\MINIGAME\COCOS2D\COCOS\2D\..\..\EXTERNAL\GLFW3\INCLUDE\WIN32 /I"C:\USERS\ZOGEN\DESKTOP\MINIGAME\COCOS2D\COCOS\2D\..\..\EXTERNAL\WIN32-SPECIFIC\GLES\INCLUDE\OGLES" /IC:\USERS\ZOGEN\DESKTOP\MINIGAME\COCOS2D\COCOS\2D\..\..\EXTERNAL\FREETYPE2\INCLUDE\WIN32\FREETYPE2 /IC:\USERS\ZOGEN\DESKTOP\MINIGAME\COCOS2D\COCOS\2D\..\..\EXTERNAL\FREETYPE2\INCLUDE\WIN32\ /IC:\USERS\ZOGEN\DESKTOP\MINIGAME\COCOS2D\COCOS\2D\..\..\EXTERNAL /IC:\USERS\ZOGEN\DESKTOP\MINIGAME\COCOS2D\COCOS\2D\..\..\EXTERNAL\OPENSSL\INCLUDE\WIN32 /Zi /nologo /W3 /WX- /diagnostics:column /O2 /Oi /Oy- /GL /D WIN32 /D NDEBUG /D _WINDOWS /D _USE_MATH_DEFINES /D GL_GLEXT_PROTOTYPES /D CC_ENABLE_CHIPMUNK_INTEGRATION=1 /D _CRT_SECURE_NO_WARNINGS /D _SCL_SECURE_NO_WARNINGS /D _VARIADIC_MAX=10 /D _UNICODE /D UNICODE /Gm- /EHsc /MD /GS /Gy /fp:precise /Zc:wchar_t /Zc:forScope /Zc:inline /Fo"RELEASE.WIN32\\" /Fd"RELEASE.WIN32\VC142.PDB" /Gd /TP /wd4267 /wd4251 /wd4244 /analyze- /FC C:\USERS\ZOGEN\DESKTOP\MINIGAME\PROJ.WIN32\GAMESCENE.CPP
