#Command: "C:\Program Files (x86)\Microsoft Visual Studio\2019\Community\VC\Tools\MSVC\14.21.27702\bin\HostX86\x86\link.exe" /ERRORREPORT:PROMPT @C:\Users\Zogen\AppData\Local\Temp\tmp43cfd54aca124f76a7855befb0375091.rsp /nologo /incremental /fullbuild
^C:\USERS\ZOGEN\DESKTOP\MINIGAME\PROJ.WIN32\DEBUG.WIN32\APPDELEGATE.OBJ|C:\USERS\ZOGEN\DESKTOP\MINIGAME\PROJ.WIN32\DEBUG.WIN32\CLICKSCENE.OBJ|C:\USERS\ZOGEN\DESKTOP\MINIGAME\PROJ.WIN32\DEBUG.WIN32\GAME.RES|C:\USERS\ZOGEN\DESKTOP\MINIGAME\PROJ.WIN32\DEBUG.WIN32\GAMESCENE.OBJ|C:\USERS\ZOGEN\DESKTOP\MINIGAME\PROJ.WIN32\DEBUG.WIN32\LIBCOCOS2D.LIB|C:\USERS\ZOGEN\DESKTOP\MINIGAME\PROJ.WIN32\DEBUG.WIN32\LIBSPINE.LIB|C:\USERS\ZOGEN\DESKTOP\MINIGAME\PROJ.WIN32\DEBUG.WIN32\MAIN.OBJ
C:\USERS\ZOGEN\DESKTOP\MINIGAME\PROJ.WIN32\DEBUG.WIN32\MINIGAME.PDB
